# Blender v2.70 (sub 0) OBJ File: 'screen.blend'
# www.blender.org
mtllib screen.mtl
o Sphere
v 0.000016 -20.000000 0.000000
v -2.486899 19.842295 -0.314170
v -4.934578 19.371664 -0.623384
v -7.304436 18.595530 -0.922767
v -9.559099 17.526133 -1.207597
v -11.663008 16.180340 -1.473383
v -13.582986 14.579372 -1.715932
v -15.288751 12.748480 -1.931420
v -16.753403 10.716535 -2.116449
v -17.953846 8.515584 -2.268100
v -18.871145 6.180337 -2.383982
v -19.490833 3.747622 -2.462267
v -19.803141 1.255805 -2.501720
v -19.803141 -1.255816 -2.501720
v -19.490831 -3.747633 -2.462267
v -18.871141 -6.180348 -2.383981
v -17.953842 -8.515593 -2.268100
v -16.753399 -10.716542 -2.116448
v -15.288745 -12.748487 -1.931420
v -13.582978 -14.579380 -1.715931
v -11.662999 -16.180346 -1.473382
v -9.559088 -17.526138 -1.207596
v -7.304424 -18.595535 -0.922765
v -4.934564 -19.371666 -0.623382
v -2.486884 -19.842297 -0.314169
v -2.427912 19.842295 -0.623386
v -4.817537 19.371664 -1.236937
v -7.131185 18.595530 -1.830981
v -9.332371 17.526133 -2.396150
v -11.386378 16.180340 -2.923529
v -13.260818 14.579372 -3.404803
v -14.926124 12.748480 -3.832381
v -16.356037 10.716535 -4.199520
v -17.528008 8.515584 -4.500431
v -18.423550 6.180337 -4.730367
v -19.028540 3.747622 -4.885702
v -19.333439 1.255805 -4.963987
v -19.333439 -1.255816 -4.963987
v -19.028538 -3.747633 -4.885702
v -18.423546 -6.180348 -4.730366
v -17.528004 -8.515593 -4.500430
v -16.356033 -10.716542 -4.199519
v -14.926118 -12.748487 -3.832380
v -13.260810 -14.579380 -3.404801
v -11.386370 -16.180346 -2.923527
v -9.332359 -17.526138 -2.396147
v -7.131173 -18.595535 -1.830978
v -4.817523 -19.371666 -1.236934
v -2.427898 -19.842297 -0.623382
v -2.330637 19.842295 -0.922771
v -4.624520 19.371664 -1.830983
v -6.845471 18.595530 -2.710320
v -8.958466 17.526133 -3.546914
v -10.930179 16.180340 -4.327569
v -12.729517 14.579372 -5.039978
v -14.328102 12.748480 -5.672903
v -15.700727 10.716535 -6.216363
v -16.825739 8.515584 -6.661788
v -17.685402 6.180337 -7.002152
v -18.266153 3.747622 -7.232087
v -18.558838 1.255805 -7.347969
v -18.558838 -1.255816 -7.347969
v -18.266151 -3.747633 -7.232087
v -17.685398 -6.180348 -7.002151
v -16.825737 -8.515593 -6.661786
v -15.700723 -10.716542 -6.216361
v -14.328096 -12.748487 -5.672901
v -12.729509 -14.579380 -5.039975
v -10.930170 -16.180346 -4.327566
v -8.958454 -17.526138 -3.546909
v -6.845459 -18.595535 -2.710315
v -4.624506 -19.371666 -1.830978
v -2.330623 -19.842297 -0.922765
v -2.196605 19.842295 -1.207603
v -4.358572 19.371664 -2.396154
v -6.451799 18.595530 -3.546915
v -8.443280 17.526133 -4.641741
v -10.301603 16.180340 -5.663362
v -11.997464 14.579372 -6.595670
v -13.504118 12.748480 -7.423960
v -14.797805 10.716535 -8.135170
v -15.858120 8.515584 -8.718084
v -16.668346 6.180337 -9.163508
v -17.215698 3.747622 -9.464418
v -17.491552 1.255805 -9.616069
v -17.491552 -1.255816 -9.616069
v -17.215696 -3.747633 -9.464418
v -16.668343 -6.180348 -9.163507
v -15.858119 -8.515593 -8.718082
v -14.797802 -10.716542 -8.135167
v -13.504112 -12.748487 -7.423957
v -11.997457 -14.579380 -6.595666
v -10.301595 -16.180346 -5.663358
v -8.443269 -17.526138 -4.641735
v -6.451788 -18.595535 -3.546909
v -4.358559 -19.371666 -2.396147
v -2.196592 -19.842297 -1.207596
v -2.027931 19.842295 -1.473390
v -4.023885 19.371664 -2.923535
v -5.956379 18.595530 -4.327574
v -7.794938 17.526133 -5.663365
v -9.510565 16.180340 -6.909840
v -11.076204 14.579372 -8.047344
v -12.467166 12.748480 -9.057937
v -13.661512 10.716535 -9.925680
v -14.640409 8.515584 -10.636891
v -15.388419 6.180337 -11.180351
v -15.893743 3.747622 -11.547489
v -16.148413 1.255805 -11.732518
v -16.148413 -1.255816 -11.732518
v -15.893741 -3.747633 -11.547489
v -15.388415 -6.180348 -11.180348
v -14.640408 -8.515593 -10.636889
v -13.661510 -10.716542 -9.925677
v -12.467160 -12.748487 -9.057933
v -11.076197 -14.579380 -8.047339
v -9.510557 -16.180346 -6.909835
v -7.794927 -17.526138 -5.663358
v -5.956368 -18.595535 -4.327566
v -4.023873 -19.371666 -2.923527
v -2.027919 -19.842297 -1.473381
v -1.827275 19.842295 -1.715941
v -3.625739 19.371664 -3.404811
v -5.367023 18.595530 -5.039984
v -7.023665 17.526133 -6.595675
v -8.569539 16.180340 -8.047346
v -9.980266 14.579372 -9.372107
v -11.233599 12.748480 -10.549065
v -12.309770 10.716535 -11.559656
v -13.191810 8.515584 -12.387948
v -13.865808 6.180337 -13.020873
v -14.321133 3.747622 -13.448450
v -14.550604 1.255805 -13.663939
v -14.550604 -1.255816 -13.663939
v -14.321131 -3.747633 -13.448450
v -13.865805 -6.180348 -13.020869
v -13.191809 -8.515593 -12.387945
v -12.309768 -10.716542 -11.559653
v -11.233594 -12.748487 -10.549060
v -9.980259 -14.579380 -9.372101
v -8.569532 -16.180346 -8.047340
v -7.023655 -17.526138 -6.595666
v -5.367013 -18.595535 -5.039975
v -3.625729 -19.371666 -3.404800
v -1.827265 -19.842297 -1.715931
v -1.597802 19.842295 -1.931431
v -3.170413 19.371664 -3.832390
v -4.693025 18.595530 -5.672911
v -6.141624 17.526133 -7.423966
v -7.493366 16.180340 -9.057940
v -8.726932 14.579372 -10.549066
v -9.822870 12.748480 -11.873827
v -10.763895 10.716535 -13.011330
v -11.535167 8.515584 -13.943640
v -12.124523 6.180337 -14.656048
v -12.522669 3.747622 -15.137321
v -12.723323 1.255805 -15.379870
v -12.723323 -1.255816 -15.379870
v -12.522667 -3.747633 -15.137321
v -12.124521 -6.180348 -14.656044
v -11.535167 -8.515593 -13.943637
v -10.763893 -10.716542 -13.011327
v -9.822866 -12.748487 -11.873822
v -8.726926 -14.579380 -10.549060
v -7.493360 -16.180346 -9.057934
v -6.141615 -17.526138 -7.423956
v -4.693016 -18.595535 -5.672901
v -3.170404 -19.371666 -3.832379
v -1.597793 -19.842297 -1.931419
v -1.343131 19.842295 -2.116460
v -2.665087 19.371664 -4.199531
v -3.945014 18.595530 -6.216372
v -5.162725 17.526133 -8.135178
v -6.299017 16.180340 -9.925686
v -7.335969 14.579372 -11.559660
v -8.257229 12.748480 -13.011333
v -9.048267 10.716535 -14.257807
v -9.696608 8.515584 -15.279432
v -10.192028 6.180337 -16.060089
v -10.526715 3.747622 -16.587469
v -10.695387 1.255805 -16.853252
v -10.695387 -1.255816 -16.853252
v -10.526713 -3.747633 -16.587467
v -10.192027 -6.180348 -16.060083
v -9.696608 -8.515593 -15.279429
v -9.048265 -10.716542 -14.257804
v -8.257225 -12.748487 -13.011328
v -7.335964 -14.579380 -11.559653
v -6.299012 -16.180346 -9.925678
v -5.162718 -17.526138 -8.135167
v -3.945007 -18.595535 -6.216361
v -2.665079 -19.371666 -4.199518
v -1.343123 -19.842297 -2.116448
v -1.067277 19.842295 -2.268112
v -2.117732 19.371664 -4.500442
v -3.134789 18.595530 -6.661798
v -4.102408 17.526133 -8.718093
v -5.005330 16.180340 -10.636897
v -5.829313 14.579372 -12.387951
v -6.561366 12.748480 -13.943642
v -7.189942 10.716535 -15.279430
v -7.705126 8.515584 -16.374258
v -8.098798 6.180337 -17.210852
v -8.364748 3.747622 -17.776022
v -8.498777 1.255805 -18.060850
v -8.498777 -1.255816 -18.060850
v -8.364746 -3.747633 -17.776020
v -8.098798 -6.180348 -17.210846
v -7.705126 -8.515593 -16.374256
v -7.189940 -10.716542 -15.279428
v -6.561363 -12.748487 -13.943636
v -5.829309 -14.579380 -12.387944
v -5.005325 -16.180346 -10.636889
v -4.102402 -17.526138 -8.718081
v -3.134783 -18.595535 -6.661786
v -2.117725 -19.371666 -4.500429
v -1.067271 -19.842297 -2.268099
v -0.774591 19.842295 -2.383995
v -1.536978 19.371664 -4.730379
v -2.275125 18.595530 -7.002162
v -2.977392 17.526133 -9.163518
v -3.632705 16.180340 -11.180359
v -4.230726 14.579372 -13.020878
v -4.762026 12.748480 -14.656052
v -5.218227 10.716535 -16.060089
v -5.592130 8.515584 -17.210852
v -5.877845 6.180337 -18.090191
v -6.070864 3.747622 -18.684237
v -6.168137 1.255805 -18.983618
v -6.168137 -1.255816 -18.983618
v -6.070862 -3.747633 -18.684233
v -5.877846 -6.180348 -18.090185
v -5.592131 -8.515593 -17.210850
v -5.218226 -10.716542 -16.060085
v -4.762024 -12.748487 -14.656046
v -4.230722 -14.579380 -13.020870
v -3.632701 -16.180346 -11.180349
v -2.977388 -17.526138 -9.163506
v -2.275121 -18.595535 -7.002150
v -1.536973 -19.371666 -4.730365
v -0.774586 -19.842297 -2.383981
v -0.469689 19.842295 -2.462280
v -0.931984 19.371664 -4.885715
v -1.379581 18.595530 -7.232099
v -1.805421 17.526133 -9.464429
v -2.202790 16.180340 -11.547499
v -2.565416 14.579372 -13.448457
v -2.887585 12.748480 -15.137326
v -3.164217 10.716535 -16.587469
v -3.390942 8.515584 -17.776022
v -3.564194 6.180337 -18.684235
v -3.681237 3.747622 -19.297789
v -3.740221 1.255805 -19.607002
v -3.740221 -1.255816 -19.607002
v -3.681236 -3.747633 -19.297785
v -3.564196 -6.180348 -18.684229
v -3.390944 -8.515593 -17.776020
v -3.164216 -10.716542 -16.587465
v -2.887584 -12.748487 -15.137321
v -2.565414 -14.579380 -13.448449
v -2.202787 -16.180346 -11.547489
v -1.805418 -17.526138 -9.464417
v -1.379578 -18.595535 -7.232086
v -0.931981 -19.371666 -4.885700
v -0.469687 -19.842297 -2.462266
v -0.157380 19.842295 -2.501734
v -0.312293 19.371664 -4.964000
v -0.462280 18.595530 -7.347981
v -0.604978 17.526133 -9.616080
v -0.738135 16.180340 -11.732529
v -0.859649 14.579372 -13.663946
v -0.967606 12.748480 -15.379877
v -1.060305 10.716535 -16.853256
v -1.136278 8.515584 -18.060852
v -1.194334 6.180337 -18.983618
v -1.233555 3.747622 -19.607004
v -1.253320 1.255805 -19.921173
v -1.253320 -1.255816 -19.921173
v -1.233554 -3.747633 -19.607000
v -1.194336 -6.180348 -18.983612
v -1.136279 -8.515593 -18.060850
v -1.060305 -10.716542 -16.853252
v -0.967605 -12.748487 -15.379870
v -0.859647 -14.579380 -13.663938
v -0.738133 -16.180346 -11.732518
v -0.604976 -17.526138 -9.616068
v -0.462279 -18.595535 -7.347968
v -0.312292 -19.371666 -4.963985
v -0.157379 -19.842297 -2.501719
v 0.157412 19.842295 -2.501734
v 0.312324 19.371664 -4.964000
v 0.462311 18.595530 -7.347981
v 0.605007 17.526133 -9.616080
v 0.738162 16.180340 -11.732530
v 0.859677 14.579372 -13.663946
v 0.967634 12.748480 -15.379877
v 1.060329 10.716535 -16.853256
v 1.136307 8.515584 -18.060854
v 1.194362 6.180337 -18.983620
v 1.233581 3.747622 -19.607006
v 1.253348 1.255805 -19.921175
v 1.253348 -1.255816 -19.921175
v 1.233581 -3.747633 -19.607002
v 1.194359 -6.180348 -18.983614
v 1.136306 -8.515593 -18.060852
v 1.060329 -10.716542 -16.853252
v 0.967634 -12.748487 -15.379870
v 0.859677 -14.579380 -13.663938
v 0.738162 -16.180346 -11.732518
v 0.605008 -17.526138 -9.616068
v 0.462311 -18.595535 -7.347968
v 0.312323 -19.371666 -4.963985
v 0.157411 -19.842297 -2.501719
v 0.469721 19.842295 -2.462280
v 0.932016 19.371664 -4.885715
v 1.379612 18.595530 -7.232099
v 1.805451 17.526133 -9.464429
v 2.202817 16.180340 -11.547502
v 2.565445 14.579372 -13.448458
v 2.887614 12.748480 -15.137327
v 3.164242 10.716535 -16.587471
v 3.390973 8.515584 -17.776024
v 3.564223 6.180337 -18.684238
v 3.681263 3.747622 -19.297794
v 3.740251 1.255805 -19.607008
v 3.740251 -1.255816 -19.607008
v 3.681263 -3.747633 -19.297789
v 3.564219 -6.180348 -18.684233
v 3.390971 -8.515593 -17.776024
v 3.164241 -10.716542 -16.587467
v 2.887613 -12.748487 -15.137321
v 2.565444 -14.579380 -13.448449
v 2.202816 -16.180346 -11.547490
v 1.805450 -17.526138 -9.464417
v 1.379610 -18.595535 -7.232086
v 0.932013 -19.371666 -4.885700
v 0.469718 -19.842297 -2.462266
v 0.774623 19.842295 -2.383995
v 1.537009 19.371664 -4.730379
v 2.275156 18.595530 -7.002162
v 2.977423 17.526133 -9.163518
v 3.632734 16.180340 -11.180363
v 4.230754 14.579372 -13.020880
v 4.762054 12.748480 -14.656054
v 5.218252 10.716535 -16.060091
v 5.592160 8.515584 -17.210855
v 5.877874 6.180337 -18.090193
v 6.070890 3.747622 -18.684244
v 6.168168 1.255805 -18.983625
v 6.168168 -1.255816 -18.983625
v 6.070890 -3.747633 -18.684238
v 5.877870 -6.180348 -18.090189
v 5.592159 -8.515593 -17.210855
v 5.218251 -10.716542 -16.060087
v 4.762053 -12.748487 -14.656047
v 4.230752 -14.579380 -13.020871
v 3.632731 -16.180346 -11.180351
v 2.977420 -17.526138 -9.163506
v 2.275152 -18.595535 -7.002150
v 1.537004 -19.371666 -4.730365
v 0.774618 -19.842297 -2.383981
v 1.067308 19.842295 -2.268112
v 2.117763 19.371664 -4.500442
v 3.134820 18.595530 -6.661798
v 4.102438 17.526133 -8.718093
v 5.005360 16.180340 -10.636902
v 5.829342 14.579372 -12.387954
v 6.561395 12.748480 -13.943645
v 7.189968 10.716535 -15.279434
v 7.705157 8.515584 -16.374262
v 8.098827 6.180337 -17.210855
v 8.364777 3.747622 -17.776030
v 8.498810 1.255805 -18.060860
v 8.498810 -1.255816 -18.060860
v 8.364776 -3.747633 -17.776026
v 8.098824 -6.180348 -17.210852
v 7.705155 -8.515593 -16.374262
v 7.189967 -10.716542 -15.279430
v 6.561392 -12.748487 -13.943638
v 5.829340 -14.579380 -12.387946
v 5.005356 -16.180346 -10.636890
v 4.102434 -17.526138 -8.718081
v 3.134815 -18.595535 -6.661786
v 2.117757 -19.371666 -4.500429
v 1.067302 -19.842297 -2.268099
v 1.343162 19.842295 -2.116460
v 2.665119 19.371664 -4.199531
v 3.945046 18.595530 -6.216372
v 5.162756 17.526133 -8.135179
v 6.299048 16.180340 -9.925692
v 7.335999 14.579372 -11.559664
v 8.257259 12.748480 -13.011336
v 9.048294 10.716535 -14.257812
v 9.696639 8.515584 -15.279435
v 10.192058 6.180337 -16.060093
v 10.526745 3.747622 -16.587479
v 10.695420 1.255805 -16.853264
v 10.695420 -1.255816 -16.853264
v 10.526743 -3.747633 -16.587475
v 10.192053 -6.180348 -16.060091
v 9.696637 -8.515593 -15.279436
v 9.048292 -10.716542 -14.257808
v 8.257256 -12.748487 -13.011330
v 7.335995 -14.579380 -11.559656
v 6.299043 -16.180346 -9.925680
v 5.162750 -17.526138 -8.135166
v 3.945039 -18.595535 -6.216361
v 2.665112 -19.371666 -4.199518
v 1.343154 -19.842297 -2.116448
v 1.597834 19.842295 -1.931430
v 3.170445 19.371664 -3.832390
v 4.693056 18.595530 -5.672911
v 6.141654 17.526133 -7.423967
v 7.493398 16.180340 -9.057946
v 8.726962 14.579372 -10.549070
v 9.822901 12.748480 -11.873831
v 10.763924 10.716535 -13.011334
v 11.535199 8.515584 -13.943644
v 12.124554 6.180337 -14.656053
v 12.522701 3.747622 -15.137333
v 12.723358 1.255805 -15.379882
v 12.723358 -1.255816 -15.379882
v 12.522699 -3.747633 -15.137329
v 12.124549 -6.180348 -14.656052
v 11.535197 -8.515593 -13.943645
v 10.763921 -10.716542 -13.011332
v 9.822897 -12.748487 -11.873825
v 8.726957 -14.579380 -10.549063
v 7.493391 -16.180346 -9.057936
v 6.141647 -17.526138 -7.423956
v 4.693048 -18.595535 -5.672901
v 3.170436 -19.371666 -3.832379
v 1.597825 -19.842297 -1.931419
v 1.827307 19.842295 -1.715941
v 3.625771 19.371664 -3.404810
v 5.367054 18.595530 -5.039984
v 7.023695 17.526133 -6.595676
v 8.569571 16.180340 -8.047352
v 9.980297 14.579372 -9.372111
v 11.233630 12.748480 -10.549067
v 12.309800 10.716535 -11.559661
v 13.191843 8.515584 -12.387953
v 13.865838 6.180337 -13.020878
v 14.321167 3.747622 -13.448462
v 14.550641 1.255805 -13.663949
v 14.550641 -1.255816 -13.663949
v 14.321164 -3.747633 -13.448459
v 13.865833 -6.180348 -13.020878
v 13.191841 -8.515593 -12.387954
v 12.309797 -10.716542 -11.559658
v 11.233625 -12.748487 -10.549064
v 9.980291 -14.579380 -9.372105
v 8.569564 -16.180346 -8.047342
v 7.023687 -17.526138 -6.595665
v 5.367044 -18.595535 -5.039975
v 3.625761 -19.371666 -3.404800
v 1.827296 -19.842297 -1.715931
v 2.027963 19.842295 -1.473390
v 4.023917 19.371664 -2.923535
v 5.956411 18.595530 -4.327574
v 7.794969 17.526133 -5.663367
v 9.510598 16.180340 -6.909846
v 11.076237 14.579372 -8.047348
v 12.467199 12.748480 -9.057940
v 13.661544 10.716535 -9.925684
v 14.640444 8.515584 -10.636896
v 15.388451 6.180337 -11.180356
v 15.893780 3.747622 -11.547502
v 16.148453 1.255805 -11.732528
v 16.148453 -1.255816 -11.732528
v 15.893776 -3.747633 -11.547498
v 15.388446 -6.180348 -11.180357
v 14.640442 -8.515593 -10.636898
v 13.661541 -10.716542 -9.925682
v 12.467194 -12.748487 -9.057937
v 11.076230 -14.579380 -8.047343
v 9.510590 -16.180346 -6.909838
v 7.794960 -17.526138 -5.663357
v 5.956400 -18.595535 -4.327567
v 4.023905 -19.371666 -2.923526
v 2.027951 -19.842297 -1.473381
v 2.196637 19.842295 -1.207603
v 4.358603 19.371664 -2.396153
v 6.451832 18.595530 -3.546916
v 8.443312 17.526133 -4.641743
v 10.301638 16.180340 -5.663368
v 11.997498 14.579372 -6.595674
v 13.504152 12.748480 -7.423963
v 14.797836 10.716535 -8.135174
v 15.858156 8.515584 -8.718089
v 16.668379 6.180337 -9.163513
v 17.215738 3.747622 -9.464430
v 17.491594 1.255805 -9.616077
v 17.491594 -1.255816 -9.616077
v 17.215734 -3.747633 -9.464426
v 16.668375 -6.180348 -9.163515
v 15.858154 -8.515593 -8.718091
v 14.797833 -10.716542 -8.135172
v 13.504147 -12.748487 -7.423961
v 11.997490 -14.579380 -6.595670
v 10.301628 -16.180346 -5.663361
v 8.443301 -17.526138 -4.641734
v 6.451820 -18.595535 -3.546910
v 4.358590 -19.371666 -2.396146
v 2.196624 -19.842297 -1.207596
v 2.330669 19.842295 -0.922771
v 4.624552 19.371664 -1.830983
v 6.845504 18.595530 -2.710320
v 8.958498 17.526133 -3.546916
v 10.930215 16.180340 -4.327575
v 12.729551 14.579372 -5.039982
v 14.328137 12.748480 -5.672905
v 15.700759 10.716535 -6.216367
v 16.825777 8.515584 -6.661792
v 17.685436 6.180337 -7.002156
v 18.266193 3.747622 -7.232098
v 18.558882 1.255805 -7.347976
v 18.558882 -1.255816 -7.347976
v 18.266190 -3.747633 -7.232095
v 17.685432 -6.180348 -7.002159
v 16.825775 -8.515593 -6.661795
v 15.700756 -10.716542 -6.216366
v 14.328131 -12.748487 -5.672904
v 12.729543 -14.579380 -5.039979
v 10.930204 -16.180346 -4.327569
v 8.958487 -17.526138 -3.546908
v 6.845491 -18.595535 -2.710316
v 4.624538 -19.371666 -1.830978
v 2.330655 -19.842297 -0.922765
v 2.427945 19.842295 -0.623386
v 4.817570 19.371664 -1.236937
v 7.131218 18.595530 -1.830982
v 9.332404 17.526133 -2.396152
v 11.386416 16.180340 -2.923533
v 13.260853 14.579372 -3.404806
v 14.926159 12.748480 -3.832383
v 16.356071 10.716535 -4.199524
v 17.528046 8.515584 -4.500435
v 18.423586 6.180337 -4.730371
v 19.028582 3.747622 -4.885712
v 19.333487 1.255805 -4.963992
v 19.333487 -1.255816 -4.963992
v 19.028578 -3.747633 -4.885709
v 18.423582 -6.180348 -4.730374
v 17.528044 -8.515593 -4.500438
v 16.356068 -10.716542 -4.199523
v 14.926153 -12.748487 -3.832383
v 13.260843 -14.579380 -3.404805
v 11.386405 -16.180346 -2.923529
v 9.332392 -17.526138 -2.396146
v 7.131206 -18.595535 -1.830979
v 4.817555 -19.371666 -1.236934
v 2.427931 -19.842297 -0.623383
v 2.486931 19.842295 -0.314170
v 4.934611 19.371664 -0.623384
v 7.304469 18.595530 -0.922767
v 9.559134 17.526133 -1.207599
v 11.663048 16.180340 -1.473386
v 13.583023 14.579372 -1.715935
v 15.288787 12.748480 -1.931422
v 16.753439 10.716535 -2.116452
v 17.953886 8.515584 -2.268103
v 18.871183 6.180337 -2.383986
v 19.490879 3.747622 -2.462275
v 19.803188 1.255805 -2.501723
v 19.803188 -1.255816 -2.501723
v 19.490873 -3.747633 -2.462273
v 18.871180 -6.180348 -2.383989
v 17.953884 -8.515593 -2.268106
v 16.753435 -10.716542 -2.116452
v 15.288781 -12.748487 -1.931423
v 13.583013 -14.579380 -1.715935
v 11.663035 -16.180346 -1.473383
v 9.559120 -17.526138 -1.207595
v 7.304457 -18.595535 -0.922766
v 4.934596 -19.371666 -0.623382
v 2.486917 -19.842297 -0.314169
v 2.506697 19.842295 0.000000
v 4.973831 19.371664 0.000000
v 7.362525 18.595530 -0.000000
v 9.635109 17.526133 -0.000001
v 11.755745 16.180340 -0.000003
v 13.690981 14.579372 -0.000002
v 15.410302 12.748480 -0.000001
v 16.886597 10.716535 -0.000002
v 18.096584 8.515584 -0.000002
v 19.021172 6.180337 -0.000003
v 19.645794 3.747622 -0.000006
v 19.960585 1.255805 -0.000001
v 19.960585 -1.255816 -0.000001
v 19.645788 -3.747633 -0.000005
v 19.021170 -6.180348 -0.000007
v 18.096582 -8.515593 -0.000005
v 16.886593 -10.716542 -0.000002
v 15.410296 -12.748487 -0.000002
v 13.690970 -14.579380 -0.000003
v 11.755733 -16.180346 -0.000001
v 9.635096 -17.526138 0.000001
v 7.362512 -18.595535 -0.000000
v 4.973816 -19.371666 0.000000
v 2.506683 -19.842297 -0.000000
v 0.000009 20.000000 0.000015
v -2.506666 19.842295 0.000001
v -4.973804 19.371664 0.000000
v -7.362498 18.595530 -0.000000
v -9.635084 17.526133 0.000000
v -11.755726 16.180340 0.000002
v -13.690953 14.579372 0.000002
v -15.410279 12.748480 -0.000001
v -16.886580 10.716535 0.000002
v -18.096567 8.515584 0.000002
v -19.021154 6.180337 0.000004
v -19.645777 3.747622 0.000005
v -19.960573 1.255805 0.000002
v -19.960573 -1.255816 0.000002
v -19.645771 -3.747633 0.000005
v -19.021149 -6.180348 0.000009
v -18.096565 -8.515593 0.000005
v -16.886570 -10.716542 0.000001
v -15.410272 -12.748487 -0.000001
v -13.690946 -14.579380 0.000002
v -11.755709 -16.180346 0.000002
v -9.635069 -17.526138 -0.000001
v -7.362485 -18.595535 -0.000000
v -4.973788 -19.371666 0.000001
v -2.506653 -19.842297 0.000000
vt 0.913554 0.410610
vt 0.901139 0.396918
vt 0.890320 0.431061
vt 0.763427 0.760701
vt 0.739790 0.786199
vt 0.755181 0.811088
vt 0.894876 0.481676
vt 0.880004 0.465498
vt 0.869929 0.500075
vt 0.711343 0.807556
vt 0.677694 0.823233
vt 0.684207 0.845831
vt 0.639718 0.831614
vt 0.600013 0.831595
vt 0.597387 0.846090
vt 0.876681 0.552987
vt 0.859854 0.534652
vt 0.849537 0.569088
vt 0.976382 0.239417
vt 0.956684 0.267857
vt 0.961790 0.274170
vt 0.562051 0.823180
vt 0.528425 0.807474
vt 0.526068 0.811724
vt 0.838715 0.603229
vt 0.827088 0.636893
vt 0.845967 0.658200
vt 0.939999 0.298353
vt 0.925559 0.330294
vt 0.934816 0.340873
vt 0.814284 0.669847
vt 0.799836 0.701783
vt 0.819100 0.724961
vt 0.912762 0.363252
vt 0.783140 0.732272
vt 0.781094 0.785351
vt 0.722990 0.831923
vt 0.558440 0.832400
vt 0.857048 0.623564
vt 0.947320 0.306988
vt 0.801973 0.756281
vt 0.951940 0.260802
vt 0.933040 0.288678
vt 0.809275 0.614247
vt 0.796326 0.646441
vt 0.916642 0.318446
vt 0.902143 0.349573
vt 0.782028 0.677709
vt 0.765900 0.707674
vt 0.889048 0.381668
vt 0.876956 0.414435
vt 0.747351 0.735823
vt 0.725696 0.761453
vt 0.865536 0.447647
vt 0.854508 0.481115
vt 0.700248 0.783615
vt 0.670568 0.801106
vt 0.636915 0.812584
vt 0.600687 0.816896
vt 0.843618 0.514671
vt 0.832621 0.548159
vt 0.974035 0.235550
vt 0.564293 0.813538
vt 0.530214 0.802906
vt 0.821265 0.581412
vt 0.662945 0.779532
vt 0.632849 0.793908
vt 0.839502 0.460701
vt 0.827878 0.493303
vt 0.599796 0.802213
vt 0.565308 0.803663
vt 0.816305 0.525939
vt 0.804536 0.558437
vt 0.947616 0.253068
vt 0.926498 0.278038
vt 0.792313 0.590611
vt 0.779349 0.622248
vt 0.908102 0.305415
vt 0.891862 0.334558
vt 0.765313 0.653091
vt 0.749808 0.682812
vt 0.877275 0.364986
vt 0.863915 0.396331
vt 0.732362 0.710981
vt 0.712431 0.737028
vt 0.851425 0.428313
vt 0.689445 0.760198
vt 0.972002 0.231344
vt 0.531438 0.798105
vt 0.881928 0.318313
vt 0.865801 0.347000
vt 0.734512 0.657950
vt 0.718093 0.686390
vt 0.851153 0.376904
vt 0.837601 0.407679
vt 0.699672 0.713077
vt 0.678757 0.737405
vt 0.654890 0.758597
vt 0.627795 0.775713
vt 0.824819 0.439050
vt 0.812519 0.470791
vt 0.597633 0.787727
vt 0.565238 0.793721
vt 0.800444 0.502701
vt 0.788349 0.534597
vt 0.943775 0.244729
vt 0.920434 0.266514
vt 0.775986 0.566289
vt 0.763094 0.597577
vt 0.899976 0.291291
vt 0.749381 0.628225
vt 0.970319 0.226852
vt 0.532108 0.793160
vt 0.969027 0.222130
vt 0.940489 0.235866
vt 0.564212 0.783861
vt 0.532249 0.788153
vt 0.772522 0.510158
vt 0.760086 0.541557
vt 0.914917 0.254194
vt 0.892309 0.276166
vt 0.747323 0.572698
vt 0.733970 0.603367
vt 0.872348 0.300942
vt 0.854596 0.327834
vt 0.719731 0.633314
vt 0.704267 0.662233
vt 0.838608 0.356301
vt 0.823976 0.385922
vt 0.687190 0.689739
vt 0.668064 0.715335
vt 0.646440 0.738390
vt 0.621940 0.758114
vt 0.810345 0.416367
vt 0.797404 0.447367
vt 0.594424 0.773587
vt 0.784881 0.478697
vt 0.810439 0.363214
vt 0.795946 0.392848
vt 0.657272 0.694092
vt 0.637613 0.719001
vt 0.615410 0.741214
vt 0.590338 0.759923
vt 0.782381 0.423252
vt 0.769445 0.454167
vt 0.968163 0.217242
vt 0.937837 0.226569
vt 0.562350 0.774209
vt 0.531888 0.783163
vt 0.756871 0.485372
vt 0.744410 0.516667
vt 0.910032 0.241172
vt 0.885152 0.260136
vt 0.731820 0.547859
vt 0.718851 0.578748
vt 0.863126 0.282548
vt 0.843619 0.307608
vt 0.705235 0.609110
vt 0.690671 0.638683
vt 0.826200 0.334668
vt 0.674814 0.667146
vt 0.878572 0.243298
vt 0.854270 0.263231
vt 0.703828 0.554586
vt 0.690836 0.585531
vt 0.832816 0.286438
vt 0.813826 0.312142
vt 0.677135 0.615905
vt 0.662413 0.645434
vt 0.796853 0.339721
vt 0.781465 0.368688
vt 0.646312 0.673785
vt 0.628422 0.700528
vt 0.608298 0.725114
vt 0.585509 0.746848
vt 0.767277 0.398662
vt 0.753955 0.429342
vt 0.967763 0.212257
vt 0.935911 0.216940
vt 0.559754 0.764881
vt 0.531061 0.778265
vt 0.741205 0.460480
vt 0.728764 0.491863
vt 0.905880 0.227551
vt 0.716387 0.523296
vt 0.580040 0.734467
vt 0.556517 0.755978
vt 0.738214 0.404457
vt 0.725330 0.435725
vt 0.934813 0.207091
vt 0.902593 0.213446
vt 0.712959 0.467387
vt 0.700840 0.499240
vt 0.872657 0.225752
vt 0.845788 0.243087
vt 0.688727 0.531097
vt 0.676374 0.562772
vt 0.822117 0.264432
vt 0.801359 0.288860
vt 0.663521 0.594064
vt 0.649882 0.624742
vt 0.783054 0.315608
vt 0.766716 0.344080
vt 0.635127 0.654528
vt 0.618871 0.683069
vt 0.600670 0.709912
vt 0.751898 0.373815
vt 0.967861 0.207249
vt 0.529802 0.773527
vt 0.788631 0.264954
vt 0.768831 0.291046
vt 0.637141 0.605212
vt 0.623676 0.636440
vt 0.608966 0.666727
vt 0.592581 0.695702
vt 0.751472 0.319228
vt 0.736018 0.348941
vt 0.574018 0.722874
vt 0.552719 0.747593
vt 0.722007 0.379759
vt 0.709047 0.411360
vt 0.934659 0.197151
vt 0.900337 0.198983
vt 0.696809 0.443487
vt 0.685010 0.475930
vt 0.867531 0.207603
vt 0.837700 0.222208
vt 0.673393 0.508502
vt 0.661712 0.541029
vt 0.811434 0.241694
vt 0.649718 0.573331
vt 0.968487 0.202295
vt 0.528150 0.769013
vt 0.899332 0.184310
vt 0.863375 0.188962
vt 0.668737 0.453617
vt 0.657689 0.487031
vt 0.830040 0.200684
vt 0.800645 0.218325
vt 0.646736 0.520506
vt 0.635633 0.553884
vt 0.775417 0.240563
vt 0.753913 0.266217
vt 0.624125 0.586994
vt 0.611929 0.619647
vt 0.598712 0.651608
vt 0.584072 0.682578
vt 0.735457 0.294357
vt 0.719379 0.324292
vt 0.567513 0.712159
vt 0.548431 0.739807
vt 0.705099 0.355516
vt 0.692145 0.387656
vt 0.935580 0.187265
vt 0.680130 0.420431
vt 0.969665 0.197480
vt 0.526144 0.764782
vt 0.575185 0.670630
vt 0.560586 0.702401
vt 0.701673 0.300161
vt 0.687231 0.332033
vt 0.971408 0.192889
vt 0.937716 0.177597
vt 0.543719 0.732693
vt 0.523822 0.760885
vt 0.674409 0.364917
vt 0.662746 0.398507
vt 0.899864 0.169605
vt 0.860456 0.169955
vt 0.651875 0.432571
vt 0.641498 0.466926
vt 0.822869 0.178598
vt 0.789583 0.194423
vt 0.631352 0.501418
vt 0.621196 0.535904
vt 0.761406 0.215837
vt 0.737942 0.241333
vt 0.610788 0.570242
vt 0.599864 0.604274
vt 0.588121 0.637815
vt 0.718326 0.269727
vt 0.777994 0.170087
vt 0.746144 0.190952
vt 0.606358 0.519582
vt 0.597101 0.555111
vt 0.720429 0.216653
vt 0.699643 0.245655
vt 0.587476 0.590450
vt 0.577205 0.625454
vt 0.565955 0.659944
vt 0.553292 0.693678
vt 0.682544 0.276895
vt 0.668123 0.309663
vt 0.973718 0.188610
vt 0.941209 0.168335
vt 0.538641 0.726318
vt 0.521222 0.757370
vt 0.655625 0.343487
vt 0.644491 0.378038
vt 0.902313 0.155083
vt 0.859182 0.150734
vt 0.634299 0.413083
vt 0.624722 0.448447
vt 0.816300 0.156037
vt 0.615488 0.483988
vt 0.946192 0.159690
vt 0.907167 0.141024
vt 0.625224 0.359375
vt 0.615911 0.395465
vt 0.860207 0.131493
vt 0.810539 0.133082
vt 0.607295 0.431863
vt 0.599101 0.468445
vt 0.765470 0.145425
vt 0.728935 0.166135
vt 0.591092 0.505108
vt 0.583054 0.541758
vt 0.700690 0.192519
vt 0.678856 0.222550
vt 0.574767 0.578299
vt 0.565987 0.614625
vt 0.556421 0.650602
vt 0.545683 0.686056
vt 0.661585 0.254922
vt 0.647486 0.288827
vt 0.976583 0.184731
vt 0.533252 0.720738
vt 0.518382 0.754277
vt 0.635590 0.323754
vt 0.554495 0.605421
vt 0.546620 0.642679
vt 0.655295 0.200951
vt 0.638363 0.234777
vt 0.537807 0.679597
vt 0.527603 0.716003
vt 0.625050 0.270016
vt 0.614140 0.306161
vt 0.952760 0.151897
vt 0.915033 0.127791
vt 0.604848 0.342903
vt 0.596653 0.380045
vt 0.864603 0.112514
vt 0.805992 0.109824
vt 0.589186 0.417450
vt 0.582174 0.455018
vt 0.751286 0.120567
vt 0.708656 0.141717
vt 0.575395 0.492669
vt 0.568653 0.530333
vt 0.677767 0.169412
vt 0.561755 0.567943
vt 0.979970 0.181336
vt 0.515341 0.751641
vt 0.803532 0.086369
vt 0.733998 0.095702
vt 0.564730 0.443929
vt 0.559291 0.482444
vt 0.683422 0.118231
vt 0.650348 0.148044
vt 0.553925 0.520979
vt 0.548472 0.559490
vt 0.542763 0.597929
vt 0.536597 0.636242
vt 0.628208 0.181582
vt 0.612481 0.217116
vt 0.529713 0.674352
vt 0.521743 0.712156
vt 0.600620 0.253799
vt 0.591187 0.291186
vt 0.960936 0.145209
vt 0.926587 0.115862
vt 0.583332 0.329022
vt 0.576525 0.367154
vt 0.874185 0.094242
vt 0.570409 0.405480
vt 0.983829 0.178504
vt 0.512135 0.749492
vt 0.988085 0.176305
vt 0.970629 0.139879
vt 0.515720 0.709230
vt 0.508801 0.747854
vt 0.566767 0.279325
vt 0.560741 0.318129
vt 0.942413 0.105851
vt 0.892017 0.077461
vt 0.555596 0.357111
vt 0.551028 0.396208
vt 0.805373 0.062883
vt 0.710250 0.071182
vt 0.546826 0.435378
vt 0.542833 0.474590
vt 0.650022 0.096633
vt 0.616824 0.129486
vt 0.538918 0.513818
vt 0.534961 0.553037
vt 0.530836 0.592222
vt 0.526395 0.631344
vt 0.596929 0.165383
vt 0.583711 0.202710
vt 0.521447 0.670366
vt 0.574154 0.240796
vt 0.575828 0.115274
vt 0.561262 0.153488
vt 0.521277 0.548659
vt 0.518762 0.588357
vt 0.516062 0.628032
vt 0.513057 0.667671
vt 0.552188 0.192385
vt 0.545864 0.231620
vt 0.992643 0.174795
vt 0.981596 0.136142
vt 0.509582 0.707252
vt 0.505375 0.746745
vt 0.541087 0.271044
vt 0.537251 0.310581
vt 0.962630 0.098485
vt 0.922684 0.063624
vt 0.534013 0.350191
vt 0.531163 0.389848
vt 0.818888 0.039765
vt 0.670503 0.047948
vt 0.528559 0.429535
vt 0.526097 0.469239
vt 0.603513 0.078749
vt 0.523696 0.508950
vt 0.969630 0.055197
vt 0.884018 0.019096
vt 0.510980 0.386560
vt 0.510055 0.426521
vt 0.583235 0.029677
vt 0.539828 0.067786
vt 0.509184 0.466484
vt 0.508336 0.506448
vt 0.527746 0.107271
vt 0.522020 0.147028
vt 0.507483 0.546412
vt 0.506598 0.586375
vt 0.505648 0.626335
vt 0.504593 0.666290
vt 0.518603 0.186883
vt 0.516274 0.226785
vt 0.997394 0.174014
vt 0.993428 0.134182
vt 0.503372 0.706238
vt 0.501894 0.746176
vt 0.514538 0.266711
vt 0.513155 0.306652
vt 0.986377 0.094482
vt 0.511996 0.346603
vt 0.496102 0.666236
vt 0.497138 0.706198
vt 0.486185 0.226592
vt 0.487661 0.266539
vt 1.005581 0.134104
vt 1.011578 0.094320
vt 0.488835 0.306497
vt 0.489819 0.346461
vt 1.025900 0.054838
vt 1.103701 0.017796
vt 0.490682 0.386430
vt 0.491467 0.426402
vt 0.427844 0.028720
vt 0.466063 0.067317
vt 0.492206 0.466376
vt 0.492927 0.506350
vt 0.476415 0.106943
vt 0.481297 0.146768
vt 0.493650 0.546324
vt 0.494401 0.586297
vt 0.495207 0.626268
vt 0.484205 0.186663
vt 1.002213 0.173983
vt 0.498393 0.746153
vt 0.401046 0.077537
vt 0.427872 0.114359
vt 0.477559 0.508656
vt 0.479851 0.548395
vt 0.482232 0.588123
vt 0.484789 0.627832
vt 0.441840 0.152740
vt 0.450500 0.191744
vt 0.487634 0.667508
vt 0.490925 0.707132
vt 0.456521 0.231055
vt 0.461062 0.270536
vt 0.017461 0.135912
vt 0.035537 0.098022
vt 0.011578 0.094320
vt 0.464706 0.310120
vt 0.467779 0.349770
vt 0.074088 0.062690
vt 0.178852 0.037919
vt 0.103701 0.017796
vt 0.470482 0.389462
vt 0.472951 0.429180
vt 0.334149 0.046172
vt 0.475283 0.468915
vt 0.006974 0.174703
vt 0.005581 0.134104
vt 0.494909 0.746678
vt 0.025900 0.054838
vt 0.106023 0.076191
vt 0.194137 0.060966
vt 0.450584 0.395575
vt 0.454659 0.434796
vt 0.292191 0.069209
vt 0.353219 0.094994
vt 0.458529 0.474056
vt 0.462322 0.513331
vt 0.386242 0.128134
vt 0.405832 0.164231
vt 0.466155 0.552599
vt 0.470149 0.591835
vt 0.474448 0.631013
vt 0.479237 0.670096
vt 0.418774 0.201699
vt 0.428101 0.239892
vt 0.011552 0.176155
vt 0.028516 0.139510
vt 0.484779 0.709032
vt 0.491477 0.747743
vt 0.435294 0.278506
vt 0.441154 0.317381
vt 0.056092 0.105138
vt 0.446151 0.356423
vt 0.470959 0.673978
vt 0.478745 0.711881
vt 0.401474 0.252604
vt 0.410761 0.290090
vt 0.038325 0.144718
vt 0.072283 0.114960
vt 0.418480 0.328012
vt 0.425162 0.366220
vt 0.124718 0.092797
vt 0.196527 0.084443
vt 0.431158 0.404616
vt 0.436721 0.443130
vt 0.267636 0.093673
vt 0.318952 0.116372
vt 0.442045 0.481709
vt 0.447295 0.520308
vt 0.352147 0.146400
vt 0.374191 0.180121
vt 0.452627 0.558885
vt 0.458208 0.597394
vt 0.464233 0.635782
vt 0.389767 0.215802
vt 0.015837 0.178299
vt 0.488134 0.749339
vt 0.293193 0.139749
vt 0.324290 0.167584
vt 0.432543 0.529487
vt 0.439324 0.567177
vt 0.446458 0.604742
vt 0.454193 0.642095
vt 0.346782 0.199269
vt 0.363654 0.233227
vt 0.462848 0.679121
vt 0.472870 0.715654
vt 0.376875 0.268581
vt 0.387684 0.304828
vt 0.046631 0.151304
vt 0.084169 0.126757
vt 0.396872 0.341663
vt 0.404964 0.378889
vt 0.134839 0.110982
vt 0.194306 0.107908
vt 0.412328 0.416373
vt 0.419237 0.454018
vt 0.249986 0.118527
vt 0.425910 0.491745
vt 0.019731 0.181082
vt 0.484916 0.751446
vt 0.092311 0.139903
vt 0.139578 0.129924
vt 0.385634 0.394114
vt 0.394163 0.430596
vt 0.189887 0.131186
vt 0.235617 0.143394
vt 0.402266 0.467262
vt 0.410178 0.504009
vt 0.272593 0.164114
vt 0.301053 0.190579
vt 0.418114 0.540747
vt 0.426289 0.577381
vt 0.434945 0.613808
vt 0.444373 0.649899
vt 0.322960 0.220715
vt 0.340227 0.253195
vt 0.454953 0.685482
vt 0.467202 0.720317
vt 0.354282 0.287202
vt 0.366113 0.322226
vt 0.053331 0.159016
vt 0.376403 0.357938
vt 0.023159 0.184433
vt 0.481860 0.754043
vt 0.944373 0.350101
vt 0.854282 0.712798
vt 0.833507 0.692108
vt 0.923703 0.375492
vt 0.926289 0.422618
vt 0.822960 0.779285
vt 0.904036 0.446052
vt 0.910178 0.495991
vt 0.772593 0.835886
vt 0.689887 0.868814
vt 0.640832 0.850845
vt 0.885835 0.517360
vt 0.894163 0.569404
vt 1.000000 0.213904
vt 0.979003 0.242899
vt 0.981860 0.245956
vt 0.592311 0.860097
vt 0.867176 0.588435
vt 0.876403 0.642062
vt 0.954953 0.314517
vt 0.523159 0.815567
vt 0.500000 0.786096
vt 0.866113 0.677774
vt 0.934945 0.386192
vt 0.840227 0.746805
vt 0.918114 0.459253
vt 0.801053 0.809421
vt 0.902266 0.532738
vt 0.735617 0.856606
vt 0.639578 0.870076
vt 0.885635 0.605886
vt 0.967202 0.279682
vt 0.553330 0.840984
vt 0.000000 0.213904
vt 0.002213 0.173983
vn 0.680441 0.727714 0.085940
vn 0.664327 0.727714 0.170568
vn 0.747276 0.636189 0.191870
vn 0.818476 -0.534684 0.210150
vn 0.747276 -0.636189 0.191870
vn 0.765435 -0.636189 0.096683
vn 0.838374 0.534684 0.105899
vn 0.818476 0.534684 0.210150
vn 0.876827 0.424787 0.225105
vn 0.664327 -0.727714 0.170568
vn 0.570879 -0.807794 0.146580
vn 0.584765 -0.807794 0.073855
vn 0.468459 -0.875240 0.120273
vn 0.358654 -0.928892 0.092074
vn 0.367351 -0.928892 0.046388
vn 0.943785 0.308267 0.119205
vn 0.921384 0.308267 0.236549
vn 0.951506 0.186895 0.244301
vn 0.123783 0.991791 0.031770
vn 0.243141 0.967956 0.062410
vn 0.249062 0.967956 0.031465
vn 0.243141 -0.967956 0.062410
vn 0.123783 -0.991791 0.031770
vn 0.126774 -0.991791 0.015992
vn 0.966674 0.062624 0.248177
vn 0.966674 -0.062624 0.248177
vn 0.990143 -0.062624 0.125065
vn 0.358654 0.928892 0.092074
vn 0.468459 0.875240 0.120273
vn 0.479843 0.875240 0.060610
vn 0.951506 -0.186895 0.244301
vn 0.921384 -0.308267 0.236549
vn 0.943785 -0.308267 0.119205
vn 0.570879 0.807794 0.146580
vn 0.876827 -0.424787 0.225105
vn 0.838374 -0.534684 0.105899
vn 0.680441 -0.727714 0.085940
vn 0.249062 -0.967956 0.031465
vn 0.990143 0.062624 0.125065
vn 0.367351 0.928892 0.046388
vn 0.898129 -0.424787 0.113437
vn 0.233406 0.967956 0.092410
vn 0.344279 0.928892 0.136296
vn 0.927946 -0.062624 0.367382
vn 0.913388 -0.186895 0.361614
vn 0.449690 0.875240 0.178045
vn 0.548021 0.807794 0.216956
vn 0.884487 -0.308267 0.350169
vn 0.841700 -0.424787 0.333232
vn 0.637684 0.727714 0.252480
vn 0.717338 0.636189 0.284005
vn 0.785699 -0.534684 0.311075
vn 0.717338 -0.636189 0.284005
vn 0.785699 0.534684 0.311075
vn 0.841700 0.424787 0.333232
vn 0.637684 -0.727714 0.252480
vn 0.548021 -0.807794 0.216956
vn 0.449690 -0.875240 0.178045
vn 0.344279 -0.928892 0.136296
vn 0.884487 0.308267 0.350169
vn 0.913388 0.186895 0.361614
vn 0.118809 0.991791 0.047029
vn 0.233406 -0.967956 0.092410
vn 0.118809 -0.991791 0.047029
vn 0.927946 0.062624 0.367382
vn 0.516495 -0.807794 0.283944
vn 0.423841 -0.875240 0.233009
vn 0.793298 0.424787 0.436110
vn 0.833613 0.308267 0.458266
vn 0.324473 -0.928892 0.178381
vn 0.219977 -0.967956 0.120914
vn 0.860836 0.186895 0.473251
vn 0.874569 0.062624 0.480789
vn 0.219977 0.967956 0.120914
vn 0.324473 0.928892 0.178381
vn 0.874569 -0.062624 0.480789
vn 0.860836 -0.186895 0.473251
vn 0.423841 0.875240 0.233009
vn 0.516495 0.807794 0.283944
vn 0.833613 -0.308267 0.458266
vn 0.793298 -0.424787 0.436110
vn 0.601032 0.727714 0.330393
vn 0.676077 0.636189 0.371685
vn 0.740501 -0.534684 0.407086
vn 0.676077 -0.636189 0.371685
vn 0.740501 0.534684 0.407086
vn 0.601032 -0.727714 0.330393
vn 0.111972 0.991791 0.061556
vn 0.111972 -0.991791 0.061556
vn 0.476852 0.807794 0.346446
vn 0.554857 0.727714 0.403119
vn 0.732383 -0.424787 0.532090
vn 0.683645 -0.534684 0.496689
vn 0.624165 0.636189 0.453475
vn 0.683645 0.534684 0.496689
vn 0.624165 -0.636189 0.453475
vn 0.554857 -0.727714 0.403119
vn 0.476852 -0.807794 0.346446
vn 0.391278 -0.875240 0.284280
vn 0.732383 0.424787 0.532090
vn 0.769585 0.308267 0.559130
vn 0.299570 -0.928892 0.217627
vn 0.203070 -0.967956 0.147557
vn 0.794733 0.186895 0.577410
vn 0.807428 0.062624 0.586627
vn 0.203070 0.967956 0.147557
vn 0.299570 0.928892 0.217627
vn 0.807428 -0.062624 0.586627
vn 0.794733 -0.186895 0.577410
vn 0.391278 0.875240 0.284280
vn 0.769585 -0.308267 0.559130
vn 0.103366 0.991791 0.075106
vn 0.103366 -0.991791 0.075106
vn 0.093142 0.991791 0.087466
vn 0.182989 0.967956 0.171819
vn 0.182989 -0.967956 0.171850
vn 0.093142 -0.991791 0.087466
vn 0.727531 0.062624 0.683187
vn 0.727531 -0.062624 0.683187
vn 0.269906 0.928892 0.253456
vn 0.352580 0.875240 0.331095
vn 0.716117 -0.186895 0.672475
vn 0.693442 -0.308267 0.651204
vn 0.429670 0.807794 0.403485
vn 0.499954 0.727714 0.469497
vn 0.659902 -0.424787 0.619678
vn 0.615986 -0.534684 0.578448
vn 0.562395 0.636189 0.528123
vn 0.615986 0.534684 0.578448
vn 0.562395 -0.636189 0.528123
vn 0.499954 -0.727714 0.469497
vn 0.429670 -0.807794 0.403485
vn 0.352580 -0.875240 0.331095
vn 0.659902 0.424787 0.619678
vn 0.693442 0.308267 0.651204
vn 0.269906 -0.928892 0.253456
vn 0.716117 0.186895 0.672475
vn 0.538652 0.534684 0.651112
vn 0.577044 0.424787 0.697501
vn 0.437178 -0.727714 0.528459
vn 0.375683 -0.807794 0.454146
vn 0.308298 -0.875240 0.372662
vn 0.236030 -0.928892 0.285287
vn 0.606372 0.308267 0.732963
vn 0.626179 0.186895 0.756920
vn 0.081454 0.991791 0.098453
vn 0.160009 0.967956 0.193426
vn 0.160009 -0.967956 0.193426
vn 0.081454 -0.991791 0.098453
vn 0.636158 0.062624 0.768975
vn 0.636158 -0.062624 0.768975
vn 0.236030 0.928892 0.285287
vn 0.308298 0.875240 0.372662
vn 0.626179 -0.186895 0.756920
vn 0.606372 -0.308267 0.732963
vn 0.375683 0.807794 0.454146
vn 0.437178 0.727714 0.528459
vn 0.577044 -0.424787 0.697501
vn 0.538652 -0.534684 0.651112
vn 0.491775 0.636189 0.594470
vn 0.491775 -0.636189 0.594470
vn 0.259163 0.875240 0.408368
vn 0.315806 0.807794 0.497665
vn 0.509720 -0.308267 0.803186
vn 0.485061 -0.424787 0.764336
vn 0.367504 0.727714 0.579089
vn 0.413404 0.636189 0.651418
vn 0.452773 -0.534684 0.713492
vn 0.413404 -0.636189 0.651418
vn 0.452773 0.534684 0.713492
vn 0.485061 0.424787 0.764336
vn 0.367504 -0.727714 0.579089
vn 0.315806 -0.807794 0.497665
vn 0.259163 -0.875240 0.408368
vn 0.198401 -0.928892 0.312632
vn 0.509720 0.308267 0.803186
vn 0.526353 0.186895 0.829432
vn 0.068453 0.991791 0.107883
vn 0.134495 0.967956 0.211951
vn 0.134495 -0.967956 0.211951
vn 0.068453 -0.991791 0.107883
vn 0.534745 0.062624 0.842647
vn 0.534745 -0.062624 0.842647
vn 0.198401 0.928892 0.312632
vn 0.526353 -0.186895 0.829432
vn 0.157659 -0.928892 0.335032
vn 0.106876 -0.967956 0.227149
vn 0.418256 0.186895 0.888852
vn 0.424940 0.062624 0.903043
vn 0.106876 0.967956 0.227149
vn 0.157659 0.928892 0.335032
vn 0.424940 -0.062624 0.903043
vn 0.418256 -0.186895 0.888852
vn 0.205939 0.875240 0.437635
vn 0.250954 0.807794 0.533311
vn 0.405011 -0.308267 0.860744
vn 0.385449 -0.424787 0.819117
vn 0.292032 0.727714 0.620594
vn 0.328471 0.636189 0.698080
vn 0.359783 -0.534684 0.764611
vn 0.328501 -0.636189 0.698080
vn 0.359783 0.534684 0.764611
vn 0.385449 0.424787 0.819117
vn 0.292032 -0.727714 0.620594
vn 0.250954 -0.807794 0.533311
vn 0.205939 -0.875240 0.437635
vn 0.405011 0.308267 0.860744
vn 0.054415 0.991791 0.115635
vn 0.054415 -0.991791 0.115635
vn 0.238411 0.636189 0.733757
vn 0.261116 0.534684 0.803674
vn 0.238411 -0.636189 0.733757
vn 0.211921 -0.727714 0.652303
vn 0.182134 -0.807794 0.560564
vn 0.149449 -0.875240 0.459975
vn 0.279733 0.424787 0.860958
vn 0.293954 0.308267 0.904721
vn 0.114414 -0.928892 0.352153
vn 0.077548 -0.967956 0.238746
vn 0.303568 0.186895 0.934294
vn 0.308390 0.062624 0.949187
vn 0.077548 0.967956 0.238746
vn 0.114414 0.928892 0.352153
vn 0.308390 -0.062624 0.949187
vn 0.303568 -0.186895 0.934294
vn 0.149449 0.875240 0.459975
vn 0.182134 0.807794 0.560564
vn 0.293954 -0.308267 0.904721
vn 0.279733 -0.424787 0.860958
vn 0.211921 0.727714 0.652303
vn 0.261116 -0.534684 0.803674
vn 0.039491 0.991791 0.121525
vn 0.039491 -0.991791 0.121525
vn 0.069369 0.928892 0.363720
vn 0.090609 0.875240 0.475082
vn 0.184057 -0.186895 0.964965
vn 0.178228 -0.308267 0.934416
vn 0.110446 0.807794 0.578967
vn 0.128513 0.727714 0.673727
vn 0.169622 -0.424787 0.889218
vn 0.158330 -0.534684 0.830073
vn 0.144566 0.636189 0.757836
vn 0.158330 0.534684 0.830073
vn 0.144566 -0.636189 0.757836
vn 0.128513 -0.727714 0.673727
vn 0.110446 -0.807794 0.578967
vn 0.090609 -0.875240 0.475082
vn 0.169622 0.424787 0.889218
vn 0.178228 0.308267 0.934416
vn 0.069369 -0.928892 0.363720
vn 0.047029 -0.967956 0.246590
vn 0.184057 0.186895 0.964965
vn 0.186987 0.062624 0.980346
vn 0.047029 0.967956 0.246590
vn 0.186987 -0.062624 0.980346
vn 0.023927 0.991791 0.125523
vn 0.023927 -0.991791 0.125523
vn 0.030366 -0.875240 0.482711
vn 0.023225 -0.928892 0.369549
vn 0.059725 0.308267 0.949400
vn 0.061678 0.186895 0.980407
vn 0.007996 0.991791 0.127537
vn 0.015748 0.967956 0.250526
vn 0.015748 -0.967956 0.250526
vn 0.007996 -0.991791 0.127537
vn 0.062655 0.062624 0.996063
vn 0.062655 -0.062624 0.996063
vn 0.023225 0.928892 0.369549
vn 0.030366 0.875240 0.482711
vn 0.061678 -0.186895 0.980407
vn 0.059725 -0.308267 0.949400
vn 0.036988 0.807794 0.588244
vn 0.043062 0.727714 0.684500
vn 0.056825 -0.424787 0.903470
vn 0.053041 -0.534684 0.843349
vn 0.048433 0.636189 0.769982
vn 0.053041 0.534684 0.843349
vn 0.048433 -0.636189 0.769982
vn 0.043062 -0.727714 0.684500
vn 0.036988 -0.807794 0.588244
vn 0.056825 0.424787 0.903470
vn -0.043062 0.727714 0.684500
vn -0.048433 0.636189 0.769982
vn -0.053041 -0.534684 0.843349
vn -0.048433 -0.636189 0.769982
vn -0.053041 0.534684 0.843349
vn -0.056825 0.424787 0.903470
vn -0.043062 -0.727714 0.684500
vn -0.036988 -0.807794 0.588244
vn -0.030366 -0.875240 0.482711
vn -0.023225 -0.928892 0.369549
vn -0.059725 0.308267 0.949400
vn -0.061678 0.186895 0.980407
vn -0.007996 0.991791 0.127537
vn -0.015748 0.967956 0.250526
vn -0.015748 -0.967956 0.250526
vn -0.007996 -0.991791 0.127537
vn -0.062655 0.062624 0.996063
vn -0.062655 -0.062624 0.996063
vn -0.023225 0.928892 0.369549
vn -0.030366 0.875240 0.482711
vn -0.061678 -0.186895 0.980407
vn -0.059725 -0.308267 0.949400
vn -0.036988 0.807794 0.588244
vn -0.056825 -0.424787 0.903470
vn -0.047029 0.967956 0.246590
vn -0.069369 0.928892 0.363720
vn -0.186987 -0.062624 0.980346
vn -0.184057 -0.186895 0.964965
vn -0.090609 0.875240 0.475082
vn -0.110446 0.807794 0.578967
vn -0.178228 -0.308267 0.934416
vn -0.169622 -0.424787 0.889218
vn -0.128513 0.727714 0.673727
vn -0.144566 0.636189 0.757836
vn -0.158330 -0.534684 0.830073
vn -0.144566 -0.636189 0.757836
vn -0.158330 0.534684 0.830073
vn -0.169622 0.424787 0.889218
vn -0.128513 -0.727714 0.673727
vn -0.110446 -0.807794 0.578967
vn -0.090609 -0.875240 0.475082
vn -0.069369 -0.928892 0.363720
vn -0.178228 0.308267 0.934416
vn -0.184057 0.186895 0.964965
vn -0.023927 0.991791 0.125523
vn -0.047029 -0.967956 0.246590
vn -0.023927 -0.991791 0.125523
vn -0.186987 0.062624 0.980346
vn -0.182134 -0.807794 0.560564
vn -0.149449 -0.875240 0.459975
vn -0.279733 0.424787 0.860958
vn -0.293954 0.308267 0.904721
vn -0.114414 -0.928892 0.352153
vn -0.077548 -0.967956 0.238746
vn -0.303568 0.186895 0.934294
vn -0.308390 0.062624 0.949187
vn -0.077548 0.967956 0.238746
vn -0.114414 0.928892 0.352153
vn -0.308390 -0.062624 0.949187
vn -0.303568 -0.186895 0.934294
vn -0.149449 0.875240 0.459975
vn -0.182134 0.807794 0.560564
vn -0.293954 -0.308267 0.904721
vn -0.279733 -0.424787 0.860958
vn -0.211921 0.727714 0.652303
vn -0.238411 0.636189 0.733757
vn -0.261116 -0.534684 0.803674
vn -0.238411 -0.636189 0.733757
vn -0.261116 0.534684 0.803674
vn -0.211921 -0.727714 0.652303
vn -0.039491 0.991791 0.121525
vn -0.039491 -0.991791 0.121525
vn -0.250954 0.807794 0.533311
vn -0.292032 0.727714 0.620594
vn -0.385449 -0.424787 0.819117
vn -0.359783 -0.534684 0.764611
vn -0.328471 0.636189 0.698080
vn -0.359783 0.534684 0.764611
vn -0.328471 -0.636189 0.698080
vn -0.292032 -0.727714 0.620594
vn -0.250954 -0.807794 0.533311
vn -0.205939 -0.875240 0.437635
vn -0.385449 0.424787 0.819117
vn -0.405011 0.308267 0.860744
vn -0.157659 -0.928892 0.335032
vn -0.106876 -0.967956 0.227149
vn -0.418256 0.186895 0.888852
vn -0.424940 0.062624 0.903043
vn -0.106876 0.967956 0.227149
vn -0.157659 0.928892 0.335032
vn -0.424940 -0.062624 0.903043
vn -0.418256 -0.186895 0.888852
vn -0.205939 0.875240 0.437635
vn -0.405042 -0.308267 0.860744
vn -0.054415 0.991791 0.115635
vn -0.054415 -0.991791 0.115635
vn -0.068453 0.991791 0.107883
vn -0.134495 0.967956 0.211951
vn -0.134495 -0.967956 0.211951
vn -0.068453 -0.991791 0.107883
vn -0.534745 0.062624 0.842647
vn -0.534745 -0.062624 0.842647
vn -0.198401 0.928892 0.312632
vn -0.259163 0.875240 0.408368
vn -0.526353 -0.186895 0.829432
vn -0.509720 -0.308267 0.803186
vn -0.315806 0.807794 0.497665
vn -0.367504 0.727714 0.579089
vn -0.485061 -0.424787 0.764336
vn -0.452773 -0.534684 0.713492
vn -0.413404 0.636189 0.651418
vn -0.452773 0.534684 0.713492
vn -0.413404 -0.636189 0.651418
vn -0.367504 -0.727714 0.579089
vn -0.315806 -0.807794 0.497665
vn -0.259163 -0.875240 0.408368
vn -0.485061 0.424787 0.764336
vn -0.509720 0.308267 0.803186
vn -0.198401 -0.928892 0.312632
vn -0.526353 0.186895 0.829432
vn -0.538621 0.534684 0.651112
vn -0.577044 0.424787 0.697501
vn -0.437178 -0.727714 0.528459
vn -0.375683 -0.807794 0.454146
vn -0.308298 -0.875240 0.372662
vn -0.236030 -0.928892 0.285287
vn -0.606372 0.308267 0.732963
vn -0.626179 0.186895 0.756920
vn -0.081454 0.991791 0.098453
vn -0.160009 0.967956 0.193426
vn -0.160009 -0.967956 0.193426
vn -0.081454 -0.991791 0.098453
vn -0.636158 0.062624 0.768975
vn -0.636158 -0.062624 0.768975
vn -0.236030 0.928892 0.285287
vn -0.308298 0.875240 0.372662
vn -0.626179 -0.186895 0.756920
vn -0.606372 -0.308267 0.732963
vn -0.375683 0.807794 0.454146
vn -0.437178 0.727714 0.528459
vn -0.577044 -0.424787 0.697501
vn -0.538652 -0.534684 0.651112
vn -0.491775 0.636189 0.594470
vn -0.491775 -0.636189 0.594470
vn -0.352580 0.875240 0.331095
vn -0.429670 0.807794 0.403485
vn -0.693442 -0.308267 0.651204
vn -0.659902 -0.424787 0.619678
vn -0.499954 0.727714 0.469497
vn -0.562395 0.636189 0.528123
vn -0.615986 -0.534684 0.578448
vn -0.562395 -0.636189 0.528123
vn -0.615986 0.534684 0.578448
vn -0.659902 0.424787 0.619678
vn -0.499954 -0.727714 0.469497
vn -0.429670 -0.807794 0.403485
vn -0.352580 -0.875240 0.331095
vn -0.269906 -0.928892 0.253456
vn -0.693442 0.308267 0.651204
vn -0.716117 0.186895 0.672475
vn -0.093142 0.991791 0.087466
vn -0.182989 0.967956 0.171850
vn -0.182989 -0.967956 0.171850
vn -0.093142 -0.991791 0.087466
vn -0.727531 0.062624 0.683187
vn -0.727531 -0.062624 0.683187
vn -0.269906 0.928892 0.253456
vn -0.716117 -0.186895 0.672475
vn -0.299570 -0.928892 0.217627
vn -0.203070 -0.967956 0.147557
vn -0.794733 0.186895 0.577410
vn -0.807428 0.062624 0.586627
vn -0.203070 0.967956 0.147557
vn -0.299570 0.928892 0.217627
vn -0.807428 -0.062624 0.586627
vn -0.794733 -0.186895 0.577410
vn -0.391278 0.875240 0.284280
vn -0.476852 0.807794 0.346446
vn -0.769585 -0.308267 0.559130
vn -0.732383 -0.424787 0.532090
vn -0.554857 0.727714 0.403119
vn -0.624165 0.636189 0.453475
vn -0.683645 -0.534684 0.496689
vn -0.624165 -0.636189 0.453475
vn -0.683645 0.534684 0.496689
vn -0.732383 0.424787 0.532090
vn -0.554857 -0.727714 0.403119
vn -0.476852 -0.807794 0.346446
vn -0.391278 -0.875240 0.284280
vn -0.769585 0.308267 0.559130
vn -0.103366 0.991791 0.075106
vn -0.103366 -0.991791 0.075106
vn -0.676077 0.636189 0.371685
vn -0.740501 0.534684 0.407086
vn -0.676077 -0.636189 0.371685
vn -0.601032 -0.727714 0.330393
vn -0.516495 -0.807794 0.283944
vn -0.423841 -0.875240 0.233009
vn -0.793298 0.424787 0.436110
vn -0.833613 0.308267 0.458266
vn -0.324473 -0.928892 0.178381
vn -0.219977 -0.967956 0.120914
vn -0.860836 0.186895 0.473251
vn -0.874569 0.062624 0.480789
vn -0.219977 0.967956 0.120914
vn -0.324473 0.928892 0.178381
vn -0.874569 -0.062624 0.480789
vn -0.860836 -0.186895 0.473251
vn -0.423841 0.875240 0.233009
vn -0.516495 0.807794 0.283944
vn -0.833613 -0.308267 0.458266
vn -0.793298 -0.424787 0.436110
vn -0.601032 0.727714 0.330393
vn -0.740501 -0.534684 0.407086
vn -0.111972 0.991791 0.061556
vn -0.111972 -0.991791 0.061556
vn -0.449690 0.875240 0.178045
vn -0.548021 0.807794 0.216956
vn -0.884487 -0.308267 0.350169
vn -0.841700 -0.424787 0.333232
vn -0.637684 0.727714 0.252480
vn -0.717338 0.636189 0.284005
vn -0.785699 -0.534684 0.311075
vn -0.717338 -0.636189 0.284005
vn -0.785699 0.534684 0.311075
vn -0.841700 0.424787 0.333232
vn -0.637684 -0.727714 0.252480
vn -0.548021 -0.807794 0.216956
vn -0.449690 -0.875240 0.178045
vn -0.344279 -0.928892 0.136296
vn -0.884487 0.308267 0.350169
vn -0.913388 0.186895 0.361614
vn -0.118809 0.991791 0.047029
vn -0.233406 0.967956 0.092410
vn -0.233406 -0.967956 0.092410
vn -0.118809 -0.991791 0.047029
vn -0.927946 0.062624 0.367382
vn -0.927946 -0.062624 0.367382
vn -0.344279 0.928892 0.136296
vn -0.913388 -0.186895 0.361614
vn -0.358654 -0.928892 0.092074
vn -0.243141 -0.967956 0.062410
vn -0.951506 0.186895 0.244301
vn -0.966674 0.062624 0.248177
vn -0.243141 0.967956 0.062410
vn -0.358654 0.928892 0.092074
vn -0.966674 -0.062624 0.248177
vn -0.951506 -0.186895 0.244301
vn -0.468459 0.875240 0.120273
vn -0.570879 0.807794 0.146580
vn -0.921384 -0.308267 0.236549
vn -0.876827 -0.424787 0.225105
vn -0.664327 0.727714 0.170568
vn -0.747276 0.636189 0.191870
vn -0.818476 -0.534684 0.210150
vn -0.747276 -0.636189 0.191870
vn -0.818476 0.534684 0.210150
vn -0.876827 0.424787 0.225105
vn -0.664327 -0.727714 0.170568
vn -0.570879 -0.807794 0.146580
vn -0.468459 -0.875240 0.120273
vn -0.921384 0.308267 0.236549
vn -0.123783 0.991791 0.031770
vn -0.123783 -0.991791 0.031770
vn -0.765435 0.636189 0.096683
vn -0.838374 0.534684 0.105899
vn -0.765435 -0.636189 0.096683
vn -0.680441 -0.727714 0.085940
vn -0.584765 -0.807794 0.073855
vn -0.479843 -0.875240 0.060610
vn -0.898129 0.424787 0.113437
vn -0.943785 0.308267 0.119205
vn -0.367351 -0.928892 0.046388
vn -0.249062 -0.967956 0.031434
vn -0.974609 0.186895 0.123112
vn -0.990143 0.062624 0.125065
vn -0.249062 0.967956 0.031465
vn -0.367351 0.928892 0.046388
vn -0.990143 -0.062624 0.125065
vn -0.974609 -0.186895 0.123112
vn -0.479843 0.875240 0.060610
vn -0.584765 0.807794 0.073855
vn -0.943785 -0.308267 0.119205
vn -0.898129 -0.424787 0.113437
vn -0.680441 0.727714 0.085940
vn -0.838374 -0.534684 0.105899
vn -0.126774 0.991791 0.015992
vn -0.126774 -0.991791 0.015992
vn -0.370191 0.928664 0.023291
vn -0.483453 0.874842 0.030415
vn -0.980504 -0.186566 0.061689
vn -0.949595 -0.307732 0.059744
vn -0.589018 0.807270 0.037058
vn -0.685239 0.727041 0.043111
vn -0.903815 -0.424129 0.056864
vn -0.843854 -0.533940 0.053091
vn -0.770622 0.635446 0.048484
vn -0.843853 0.533942 0.053091
vn -0.770622 -0.635445 0.048484
vn -0.685239 -0.727041 0.043112
vn -0.589019 -0.807269 0.037058
vn -0.483453 -0.874842 0.030415
vn -0.903815 0.424129 0.056864
vn -0.949596 0.307732 0.059745
vn -0.370191 -0.928663 0.023290
vn -0.251012 -0.967855 0.015794
vn -0.980504 0.186567 0.061689
vn -0.996075 0.062512 0.062668
vn -0.251011 0.967855 0.015794
vn -0.996075 -0.062511 0.062668
vn -0.127799 0.991767 0.008041
vn -0.127799 -0.991768 0.008041
vn 0.483453 0.874842 0.030418
vn 0.980503 -0.186567 0.061699
vn 0.974609 -0.186895 0.123112
vn 0.584765 0.807794 0.073855
vn 0.685238 0.727041 0.043115
vn 0.903815 -0.424127 0.056873
vn 0.765435 0.636189 0.096683
vn 0.843852 0.533942 0.053097
vn 0.770621 -0.635446 0.048489
vn 0.589020 -0.807268 0.037066
vn 0.479843 -0.875240 0.060610
vn 0.898129 0.424787 0.113437
vn 0.949595 0.307733 0.059752
vn 0.000000 0.999195 0.040126
vn 0.126774 0.991791 0.015992
vn 0.127799 0.991767 0.008040
vn 0.370191 -0.928663 0.023293
vn 0.974609 0.186895 0.123112
vn 0.996074 0.062512 0.062682
vn 0.370191 0.928664 0.023293
vn 0.127799 -0.991767 0.008046
vn 0.000000 -0.999195 0.040125
vn 0.996074 -0.062511 0.062682
vn 0.589018 0.807269 0.037063
vn 0.949595 -0.307732 0.059752
vn 0.770621 0.635446 0.048488
vn 0.843853 -0.533940 0.053099
vn 0.903815 0.424128 0.056873
vn 0.685239 -0.727041 0.043116
vn 0.483453 -0.874842 0.030419
vn 0.980503 0.186568 0.061698
vn 0.251011 0.967855 0.015797
vn 0.251012 -0.967855 0.015795
usemtl None
s 1
f 20/1/1 44/2/2 43/3/3
f 33/4/4 32/5/5 8/6/6
f 18/7/7 42/8/8 41/9/9
f 31/10/10 30/11/11 6/12/12
f 29/13/13 28/14/14 4/15/15
f 16/16/16 40/17/17 39/18/18
f 49/19/19 48/20/20 24/21/21
f 27/22/22 26/23/23 2/24/24
f 38/25/25 37/26/26 13/27/27
f 47/28/28 46/29/29 22/30/30
f 36/31/31 35/32/32 11/33/33
f 45/34/34 44/2/2 20/1/1
f 34/35/35 33/4/4 9/36/36
f 43/3/3 42/8/8 18/7/7
f 32/5/5 31/10/10 7/37/37
f 6/12/12 30/11/11 29/13/13
f 41/9/9 40/17/17 16/16/16
f 28/14/14 27/22/22 3/38/38
f 39/18/18 38/25/25 14/39/39
f 48/20/20 47/28/28 23/40/40
f 13/27/27 37/26/26 36/31/31
f 22/30/30 46/29/29 45/34/34
f 35/32/32 34/35/35 10/41/41
f 48/20/20 72/42/42 71/43/43
f 61/44/44 60/45/45 36/31/31
f 70/46/46 69/47/47 45/34/34
f 35/32/32 59/48/48 58/49/49
f 44/2/2 68/50/50 67/51/51
f 57/52/52 56/53/53 32/5/5
f 42/8/8 66/54/54 65/55/55
f 55/56/56 54/57/57 30/11/11
f 53/58/58 52/59/59 28/14/14
f 64/60/60 63/61/61 39/18/18
f 73/62/62 72/42/42 48/20/20
f 51/63/63 50/64/64 26/23/23
f 62/65/65 61/44/44 37/26/26
f 71/43/43 70/46/46 46/29/29
f 60/45/45 59/48/48 35/32/32
f 69/47/47 68/50/50 44/2/2
f 58/49/49 57/52/52 33/4/4
f 67/51/51 66/54/54 42/8/8
f 56/53/53 55/56/56 31/10/10
f 54/57/57 53/58/58 29/13/13
f 65/55/55 64/60/60 40/17/17
f 52/59/59 51/63/63 27/22/22
f 39/18/18 63/61/61 62/65/65
f 78/66/66 77/67/67 53/58/58
f 89/68/68 88/69/69 64/60/60
f 76/70/70 75/71/71 51/63/63
f 87/72/72 86/73/73 62/65/65
f 96/74/74 95/75/75 71/43/43
f 61/44/44 85/76/76 84/77/77
f 70/46/46 94/78/78 93/79/79
f 83/80/80 82/81/81 58/49/49
f 92/82/82 91/83/83 67/51/51
f 81/84/84 80/85/85 56/53/53
f 66/54/54 90/86/86 89/68/68
f 79/87/87 78/66/66 54/57/57
f 77/67/67 76/70/70 52/59/59
f 64/60/60 88/69/69 87/72/72
f 73/62/62 97/88/88 96/74/74
f 75/71/71 74/89/89 50/64/64
f 86/73/73 85/76/76 61/44/44
f 71/43/43 95/75/75 94/78/78
f 84/77/77 83/80/80 59/48/48
f 69/47/47 93/79/79 92/82/82
f 82/81/81 81/84/84 57/52/52
f 91/83/83 90/86/86 66/54/54
f 80/85/85 79/87/87 55/56/56
f 93/79/79 117/90/90 116/91/91
f 106/92/92 105/93/93 81/84/84
f 115/94/94 114/95/95 90/86/86
f 104/96/96 103/97/97 79/87/87
f 78/66/66 102/98/98 101/99/99
f 113/100/100 112/101/101 88/69/69
f 100/102/102 99/103/103 75/71/71
f 111/104/104 110/105/105 86/73/73
f 96/74/74 120/106/106 119/107/107
f 85/76/76 109/108/108 108/109/109
f 118/110/110 117/90/90 93/79/79
f 83/80/80 107/111/111 106/92/92
f 116/91/91 115/94/94 91/83/83
f 105/93/93 104/96/96 80/85/85
f 90/86/86 114/95/95 113/100/100
f 103/97/97 102/98/98 78/66/66
f 101/99/99 100/102/102 76/70/70
f 88/69/69 112/101/101 111/104/104
f 121/112/112 120/106/106 96/74/74
f 99/103/103 98/113/113 74/89/89
f 110/105/105 109/108/108 85/76/76
f 119/107/107 118/110/110 94/78/78
f 84/77/77 108/109/109 107/111/111
f 145/114/114 144/115/115 120/106/106
f 99/103/103 123/116/116 122/117/117
f 134/118/118 133/119/119 109/108/108
f 119/107/107 143/120/120 142/121/121
f 108/109/109 132/122/122 131/123/123
f 117/90/90 141/124/124 140/125/125
f 130/126/126 129/127/127 105/93/93
f 139/128/128 138/129/129 114/95/95
f 128/130/130 127/131/131 103/97/97
f 126/132/132 125/133/133 101/99/99
f 113/100/100 137/134/134 136/135/135
f 124/136/136 123/116/116 99/103/103
f 135/137/137 134/118/118 110/105/105
f 120/106/106 144/115/115 143/120/120
f 133/119/119 132/122/122 108/109/109
f 142/121/121 141/124/124 117/90/90
f 131/123/123 130/126/126 106/92/92
f 140/125/125 139/128/128 115/94/94
f 129/127/127 128/130/130 104/96/96
f 114/95/95 138/129/129 137/134/134
f 127/131/131 126/132/132 102/98/98
f 125/133/133 124/136/136 100/102/102
f 112/101/101 136/135/135 135/137/137
f 162/138/138 161/139/139 137/134/134
f 151/140/140 150/141/141 126/132/132
f 149/142/142 148/143/143 124/136/136
f 136/135/135 160/144/144 159/145/145
f 145/114/114 169/146/146 168/147/147
f 147/148/148 146/149/149 122/117/117
f 158/150/150 157/151/151 133/119/119
f 167/152/152 166/153/153 142/121/121
f 132/122/122 156/154/154 155/155/155
f 141/124/124 165/156/156 164/157/157
f 154/158/158 153/159/159 129/127/127
f 163/160/160 162/138/138 138/129/129
f 152/161/161 151/140/140 127/131/131
f 150/141/141 149/142/142 125/133/133
f 137/134/134 161/139/139 160/144/144
f 148/143/143 147/148/148 123/116/116
f 159/145/145 158/150/150 134/118/118
f 144/115/115 168/147/147 167/152/152
f 157/151/151 156/154/154 132/122/122
f 166/153/153 165/156/156 141/124/124
f 155/155/155 154/158/158 130/126/126
f 164/157/157 163/160/160 139/128/128
f 153/159/159 152/161/161 128/130/130
f 190/162/162 189/163/163 165/156/156
f 155/155/155 179/164/164 178/165/165
f 188/166/166 187/167/167 163/160/160
f 153/159/159 177/168/168 176/169/169
f 162/138/138 186/170/170 185/171/171
f 175/172/172 174/173/173 150/141/141
f 149/142/142 173/174/174 172/175/175
f 160/144/144 184/176/176 183/177/177
f 193/178/178 192/179/179 168/147/147
f 147/148/148 171/180/180 170/181/181
f 182/182/182 181/183/183 157/151/151
f 167/152/152 191/184/184 190/162/162
f 180/185/185 179/164/164 155/155/155
f 165/156/156 189/163/163 188/166/166
f 178/165/165 177/168/168 153/159/159
f 187/167/167 186/170/170 162/138/138
f 176/169/169 175/172/172 151/140/140
f 150/141/141 174/173/173 173/174/174
f 185/171/171 184/176/176 160/144/144
f 172/175/175 171/180/180 147/148/148
f 183/177/177 182/182/182 158/150/150
f 192/179/179 191/184/184 167/152/152
f 157/151/151 181/183/183 180/185/185
f 172/175/175 196/186/186 195/187/187
f 207/188/188 206/189/189 182/182/182
f 216/190/190 215/191/191 191/184/184
f 205/192/192 204/193/193 180/185/185
f 214/194/194 213/195/195 189/163/163
f 179/164/164 203/196/196 202/197/197
f 212/198/198 211/199/199 187/167/167
f 177/168/168 201/200/200 200/201/201
f 186/170/170 210/202/202 209/203/203
f 199/204/204 198/205/205 174/173/173
f 197/206/206 196/186/186 172/175/175
f 184/176/176 208/207/207 207/188/188
f 217/208/208 216/190/190 192/179/179
f 195/187/187 194/209/209 170/181/181
f 206/189/189 205/192/192 181/183/183
f 191/184/184 215/191/191 214/194/194
f 180/185/185 204/193/193 203/196/196
f 189/163/163 213/195/195 212/198/198
f 202/197/197 201/200/200 177/168/168
f 211/199/199 210/202/202 186/170/170
f 200/201/201 199/204/204 175/172/172
f 198/205/205 197/206/206 173/174/174
f 209/203/203 208/207/207 184/176/176
f 235/210/210 234/211/211 210/202/202
f 224/212/212 223/213/213 199/204/204
f 222/214/214 221/215/215 197/206/206
f 233/216/216 232/217/217 208/207/207
f 220/218/218 219/219/219 195/187/187
f 207/188/188 231/220/220 230/221/221
f 240/222/222 239/223/223 215/191/191
f 229/224/224 228/225/225 204/193/193
f 238/226/226 237/227/227 213/195/195
f 203/196/196 227/228/228 226/229/229
f 236/230/230 235/210/210 211/199/199
f 201/200/200 225/231/231 224/212/212
f 210/202/202 234/211/211 233/216/216
f 223/213/213 222/214/214 198/205/205
f 221/215/215 220/218/218 196/186/186
f 208/207/207 232/217/217 231/220/220
f 241/232/232 240/222/222 216/190/190
f 219/219/219 218/233/233 194/209/209
f 230/221/221 229/224/224 205/192/192
f 239/223/223 238/226/226 214/194/194
f 204/193/193 228/225/225 227/228/228
f 213/195/195 237/227/227 236/230/230
f 226/229/229 225/231/231 201/200/200
f 239/223/223 263/234/234 262/235/235
f 228/225/225 252/236/236 251/237/237
f 237/227/227 261/238/238 260/239/239
f 250/240/240 249/241/241 225/231/231
f 259/242/242 258/243/243 234/211/211
f 248/244/244 247/245/245 223/213/213
f 222/214/214 246/246/246 245/247/247
f 257/248/248 256/249/249 232/217/217
f 244/250/250 243/251/251 219/219/219
f 231/220/220 255/252/252 254/253/253
f 240/222/222 264/254/254 263/234/234
f 253/255/255 252/236/236 228/225/225
f 262/235/235 261/238/238 237/227/227
f 227/228/228 251/237/237 250/240/240
f 260/239/239 259/242/242 235/210/210
f 225/231/231 249/241/241 248/244/244
f 234/211/211 258/243/243 257/248/248
f 247/245/245 246/246/246 222/214/214
f 221/215/215 245/247/247 244/250/250
f 232/217/217 256/249/249 255/252/252
f 241/232/232 265/256/256 264/254/254
f 243/251/251 242/257/257 218/233/233
f 254/253/253 253/255/255 229/224/224
f 269/258/258 268/259/259 244/250/250
f 256/249/249 280/260/260 279/261/261
f 289/262/262 288/263/263 264/254/254
f 243/251/251 267/264/264 266/265/265
f 278/266/266 277/267/267 253/255/255
f 263/234/234 287/268/268 286/269/269
f 252/236/236 276/270/270 275/271/271
f 285/272/272 284/273/273 260/239/239
f 274/274/274 273/275/275 249/241/241
f 283/276/276 282/277/277 258/243/243
f 272/278/278 271/279/279 247/245/245
f 270/280/280 269/258/258 245/247/247
f 281/281/281 280/260/260 256/249/249
f 244/250/250 268/259/259 267/264/264
f 255/252/252 279/261/261 278/266/266
f 288/263/263 287/268/268 263/234/234
f 277/267/267 276/270/270 252/236/236
f 286/269/269 285/272/272 261/238/238
f 251/237/237 275/271/271 274/274/274
f 284/273/273 283/276/276 259/242/242
f 249/241/241 273/275/275 272/278/278
f 258/243/243 282/277/277 281/281/281
f 271/279/279 270/280/280 246/246/246
f 308/282/282 307/283/283 283/276/276
f 273/275/275 297/284/284 296/285/285
f 282/277/277 306/286/286 305/287/287
f 295/288/288 294/289/289 270/280/280
f 269/258/258 293/290/290 292/291/291
f 280/260/260 304/292/292 303/293/293
f 313/294/294 312/295/295 288/263/263
f 291/296/296 290/297/297 266/265/265
f 302/298/298 301/299/299 277/267/267
f 311/300/300 310/301/301 286/269/269
f 300/302/302 299/303/303 275/271/271
f 309/304/304 308/282/282 284/273/273
f 298/305/305 297/284/284 273/275/275
f 307/283/283 306/286/286 282/277/277
f 296/285/285 295/288/288 271/279/279
f 270/280/280 294/289/289 293/290/290
f 305/287/287 304/292/292 280/260/260
f 292/291/291 291/296/296 267/264/264
f 279/261/261 303/293/293 302/298/298
f 312/295/295 311/300/300 287/268/268
f 301/299/299 300/302/302 276/270/270
f 310/301/301 309/304/304 285/272/272
f 299/303/303 298/305/305 274/274/274
f 336/306/306 335/307/307 311/300/300
f 325/308/308 324/309/309 300/302/302
f 334/310/310 333/311/311 309/304/304
f 299/303/303 323/312/312 322/313/313
f 332/314/314 331/315/315 307/283/283
f 297/284/284 321/316/316 320/317/317
f 306/286/286 330/318/318 329/319/319
f 319/320/320 318/321/321 294/289/289
f 293/290/290 317/322/322 316/323/323
f 304/292/292 328/324/324 327/325/325
f 337/326/326 336/306/306 312/295/295
f 315/327/327 314/328/328 290/297/297
f 326/329/329 325/308/308 301/299/299
f 311/300/300 335/307/307 334/310/310
f 300/302/302 324/309/309 323/312/312
f 333/311/311 332/314/314 308/282/282
f 322/313/313 321/316/316 297/284/284
f 331/315/315 330/318/318 306/286/286
f 320/317/317 319/320/320 295/288/288
f 294/289/289 318/321/321 317/322/322
f 329/319/319 328/324/324 304/292/292
f 316/323/323 315/327/327 291/296/296
f 303/293/293 327/325/325 326/329/329
f 342/330/330 341/331/331 317/322/322
f 353/332/332 352/333/333 328/324/324
f 340/334/334 339/335/335 315/327/327
f 327/325/325 351/336/336 350/337/337
f 360/338/338 359/339/339 335/307/307
f 349/340/340 348/341/341 324/309/309
f 358/342/342 357/343/343 333/311/311
f 323/312/312 347/344/344 346/345/345
f 356/346/346 355/347/347 331/315/315
f 321/316/316 345/348/348 344/349/349
f 330/318/318 354/350/350 353/332/332
f 343/351/351 342/330/330 318/321/321
f 341/331/331 340/334/334 316/323/323
f 328/324/324 352/333/333 351/336/336
f 337/326/326 361/352/352 360/338/338
f 315/327/327 339/335/335 338/353/353
f 350/337/337 349/340/340 325/308/308
f 359/339/339 358/342/342 334/310/310
f 324/309/309 348/341/341 347/344/344
f 333/311/311 357/343/343 356/346/346
f 346/345/345 345/348/348 321/316/316
f 355/347/347 354/350/350 330/318/318
f 344/349/349 343/351/351 319/320/320
f 381/354/354 380/355/355 356/346/346
f 370/356/356 369/357/357 345/348/348
f 379/358/358 378/359/359 354/350/350
f 368/360/360 367/361/361 343/351/351
f 366/362/362 365/363/363 341/331/331
f 377/364/364 376/365/365 352/333/333
f 340/334/334 364/366/366 363/367/367
f 351/336/336 375/368/368 374/369/369
f 360/338/338 384/370/370 383/371/371
f 373/372/372 372/373/373 348/341/341
f 382/374/374 381/354/354 357/343/343
f 347/344/344 371/375/375 370/356/356
f 380/355/355 379/358/358 355/347/347
f 345/348/348 369/357/357 368/360/360
f 378/359/359 377/364/364 353/332/332
f 367/361/361 366/362/362 342/330/330
f 341/331/331 365/363/363 364/366/366
f 352/333/333 376/365/365 375/368/368
f 385/376/376 384/370/370 360/338/338
f 363/367/367 362/377/377 338/353/353
f 374/369/369 373/372/372 349/340/340
f 383/371/371 382/374/374 358/342/342
f 348/341/341 372/373/373 371/375/375
f 409/378/378 408/379/379 384/370/370
f 363/367/367 387/380/380 386/381/381
f 398/382/382 397/383/383 373/372/372
f 407/384/384 406/385/385 382/374/374
f 372/373/373 396/386/386 395/387/387
f 405/388/388 404/389/389 380/355/355
f 394/390/390 393/391/391 369/357/357
f 403/392/392 402/393/393 378/359/359
f 392/394/394 391/395/395 367/361/361
f 390/396/396 389/397/397 365/363/363
f 401/398/398 400/399/399 376/365/365
f 388/400/400 387/380/380 363/367/367
f 375/368/368 399/401/401 398/382/382
f 408/379/379 407/384/384 383/371/371
f 397/383/383 396/386/386 372/373/373
f 406/385/385 405/388/388 381/354/354
f 371/375/375 395/387/387 394/390/390
f 380/355/355 404/389/389 403/392/392
f 369/357/357 393/391/391 392/394/394
f 402/393/393 401/398/398 377/364/364
f 391/395/395 390/396/396 366/362/362
f 365/363/363 389/397/397 388/400/400
f 376/365/365 400/399/399 399/401/401
f 426/402/402 425/403/403 401/398/398
f 391/395/395 415/404/404 414/405/405
f 389/397/397 413/406/406 412/407/407
f 400/399/399 424/408/408 423/409/409
f 433/410/410 432/411/411 408/379/379
f 411/412/412 410/413/413 386/381/381
f 422/414/414 421/415/415 397/383/383
f 407/384/384 431/416/416 430/417/417
f 396/386/386 420/418/418 419/419/419
f 429/420/420 428/421/421 404/389/389
f 418/422/422 417/423/423 393/391/391
f 427/424/424 426/402/402 402/393/393
f 416/425/425 415/404/404 391/395/395
f 390/396/396 414/405/405 413/406/406
f 425/403/403 424/408/408 400/399/399
f 412/407/407 411/412/412 387/380/380
f 399/401/401 423/409/409 422/414/414
f 432/411/411 431/416/416 407/384/384
f 421/415/415 420/418/418 396/386/386
f 430/417/417 429/420/420 405/388/388
f 419/419/419 418/422/422 394/390/390
f 404/389/389 428/421/421 427/424/424
f 393/391/391 417/423/423 416/425/425
f 454/426/426 453/427/427 429/420/420
f 419/419/419 443/428/428 442/429/429
f 428/421/421 452/430/430 451/431/431
f 417/423/423 441/432/432 440/433/433
f 450/434/434 449/435/435 425/403/403
f 439/436/436 438/437/437 414/405/405
f 413/406/406 437/438/438 436/439/439
f 424/408/408 448/440/440 447/441/441
f 433/410/410 457/442/442 456/443/443
f 435/444/444 434/445/445 410/413/413
f 446/446/446 445/447/447 421/415/415
f 431/416/416 455/448/448 454/426/426
f 420/418/418 444/449/449 443/428/428
f 453/427/427 452/430/430 428/421/421
f 442/429/429 441/432/432 417/423/423
f 451/431/431 450/434/434 426/402/402
f 440/433/433 439/436/436 415/404/404
f 438/437/437 437/438/438 413/406/406
f 449/435/435 448/440/440 424/408/408
f 436/439/439 435/444/444 411/412/412
f 423/409/409 447/441/441 446/446/446
f 432/411/411 456/443/443 455/448/448
f 445/447/447 444/449/449 420/418/418
f 460/450/450 459/451/451 435/444/444
f 447/441/441 471/452/452 470/453/453
f 456/443/443 480/454/454 479/455/455
f 469/456/456 468/457/457 444/449/449
f 478/458/458 477/459/459 453/427/427
f 443/428/428 467/460/460 466/461/461
f 452/430/430 476/462/462 475/463/463
f 441/432/432 465/464/464 464/465/465
f 474/466/466 473/467/467 449/435/435
f 463/468/468 462/469/469 438/437/437
f 437/438/438 461/470/470 460/450/450
f 448/440/440 472/471/471 471/452/452
f 481/472/472 480/454/454 456/443/443
f 459/451/451 458/473/473 434/445/445
f 470/453/453 469/456/456 445/447/447
f 455/448/448 479/455/455 478/458/458
f 444/449/449 468/457/457 467/460/460
f 477/459/459 476/462/462 452/430/430
f 466/461/461 465/464/464 441/432/432
f 475/463/463 474/466/466 450/434/434
f 464/465/465 463/468/468 439/436/436
f 438/437/437 462/469/469 461/470/470
f 473/467/467 472/471/471 448/440/440
f 499/474/474 498/475/475 474/466/466
f 488/476/476 487/477/477 463/468/468
f 462/469/469 486/478/478 485/479/479
f 497/480/480 496/481/481 472/471/471
f 484/482/482 483/483/483 459/451/451
f 471/452/452 495/484/484 494/485/485
f 504/486/486 503/487/487 479/488/455
f 493/489/488 492/490/489 468/457/457
f 502/491/490 501/492/491 477/493/459
f 467/460/460 491/494/492 490/495/493
f 500/496/494 499/474/474 475/463/463
f 465/464/464 489/497/495 488/476/476
f 498/475/475 497/480/480 473/467/467
f 487/477/477 486/478/478 462/469/469
f 461/470/470 485/479/479 484/482/482
f 472/471/471 496/481/481 495/484/484
f 505/498/496 504/486/486 480/499/454
f 483/483/483 482/500/497 458/473/473
f 494/485/485 493/489/488 469/456/456
f 503/487/487 502/491/490 478/501/458
f 468/457/457 492/490/489 491/494/492
f 501/492/491 500/496/494 476/462/462
f 490/495/493 489/497/495 465/464/464
f 526/502/498 525/503/499 501/492/491
f 491/494/492 515/504/500 514/505/501
f 524/506/502 523/507/503 499/474/474
f 489/497/495 513/508/504 512/509/505
f 522/510/506 521/511/507 497/480/480
f 511/512/508 510/513/509 486/478/478
f 485/479/479 509/514/510 508/515/511
f 496/481/481 520/516/512 519/517/513
f 505/498/496 529/518/514 528/519/515
f 507/520/516 506/521/517 482/500/497
f 518/522/518 517/523/519 493/489/488
f 503/487/487 527/524/520 526/502/498
f 492/490/489 516/525/521 515/504/500
f 525/503/499 524/506/502 500/496/494
f 514/505/501 513/508/504 489/497/495
f 499/474/474 523/507/503 522/510/506
f 512/509/505 511/512/508 487/477/477
f 510/513/509 509/514/510 485/479/479
f 521/511/507 520/516/512 496/481/481
f 484/482/482 508/515/511 507/520/516
f 495/484/484 519/517/513 518/522/518
f 528/519/515 527/524/520 503/487/487
f 517/523/519 516/525/521 492/490/489
f 532/526/522 531/527/523 507/520/516
f 519/517/513 543/528/524 542/529/525
f 528/519/515 552/530/526 551/531/527
f 541/532/528 540/533/529 516/525/521
f 550/534/530 549/535/531 525/503/499
f 515/504/500 539/536/532 538/537/533
f 524/506/502 548/538/534 547/539/535
f 513/508/504 537/540/536 536/541/537
f 546/542/538 545/543/539 521/511/507
f 535/544/540 534/545/541 510/513/509
f 509/514/510 533/546/542 532/526/522
f 520/516/512 544/547/543 543/528/524
f 529/518/514 553/548/544 552/530/526
f 531/527/523 530/549/545 506/521/517
f 542/529/525 541/532/528 517/523/519
f 551/531/527 550/534/530 526/502/498
f 516/525/521 540/533/529 539/536/532
f 549/535/531 548/538/534 524/506/502
f 538/537/533 537/540/536 513/508/504
f 547/539/535 546/542/538 522/510/506
f 536/541/537 535/544/540 511/512/508
f 510/513/509 534/545/541 533/546/542
f 545/543/539 544/547/543 520/516/512
f 547/539/535 571/550/546 570/551/547
f 560/552/548 559/553/549 535/544/540
f 558/554/550 557/555/551 533/546/542
f 569/556/552 568/557/553 544/547/543
f 556/558/554 555/559/555 531/527/523
f 543/528/524 567/560/556 566/561/557
f 576/562/558 575/563/559 551/531/527
f 565/564/560 564/565/561 540/533/529
f 574/566/562 573/567/563 549/535/531
f 539/536/532 563/568/564 562/569/565
f 548/538/534 572/570/566 571/550/546
f 537/540/536 561/571/567 560/552/548
f 570/551/547 569/556/552 545/543/539
f 559/553/549 558/554/550 534/545/541
f 557/555/551 556/558/554 532/526/522
f 544/547/543 568/557/553 567/560/556
f 577/572/568 576/562/558 552/530/526
f 531/527/523 555/559/555 554/573/569
f 566/561/557 565/564/560 541/532/528
f 551/531/527 575/563/559 574/566/562
f 540/533/529 564/565/561 563/568/564
f 573/567/563 572/570/566 548/538/534
f 562/569/565 561/571/567 537/540/536
f 599/574/570 598/575/571 574/566/562
f 564/565/561 588/576/572 587/577/573
f 597/578/574 596/579/575 572/570/566
f 586/580/576 585/581/577 561/571/567
f 571/550/546 595/582/578 594/583/579
f 584/584/580 583/585/581 559/553/549
f 558/554/550 582/586/582 581/587/583
f 593/588/584 592/589/585 568/557/553
f 580/590/586 579/591/587 555/559/555
f 567/560/556 591/592/588 590/593/589
f 600/594/590 599/574/570 575/563/559
f 589/595/591 588/576/572 564/565/561
f 598/575/571 597/578/574 573/567/563
f 563/568/564 587/577/573 586/580/576
f 572/570/566 596/579/575 595/582/578
f 585/581/577 584/584/580 560/552/548
f 594/583/579 593/588/584 569/556/552
f 583/585/581 582/586/582 558/554/550
f 557/555/551 581/587/583 580/590/586
f 568/557/553 592/589/585 591/592/588
f 577/572/568 601/596/592 600/594/590
f 555/559/555 579/591/587 578/597/593
f 590/593/589 589/595/591 565/564/560
f 23/40/40 22/30/30 623/598/594
f 613/599/595 12/600/596 11/33/33
f 21/601/597 20/1/1 621/602/598
f 611/603/599 10/41/41 9/36/36
f 19/604/600 18/7/7 619/605/601
f 609/606/602 8/6/6 7/37/37
f 607/607/603 6/12/12 5/608/604
f 17/609/605 16/16/16 617/610/606
f 1/611/607 25/612/608 626/613/609
f 605/614/610 4/15/15 3/38/38
f 15/615/611 14/39/39 615/616/612
f 24/21/21 23/40/40 624/617/613
f 603/618/614 2/24/24 602/619/615
f 614/620/616 13/27/27 12/600/596
f 22/30/30 21/601/597 622/621/617
f 612/622/618 11/33/33 10/41/41
f 20/1/1 19/604/600 620/623/619
f 610/624/620 9/36/36 8/6/6
f 18/7/7 17/609/605 618/625/621
f 608/626/622 7/37/37 6/12/12
f 606/627/623 5/608/604 4/15/15
f 16/16/16 15/615/611 616/628/624
f 25/612/608 24/21/21 625/629/625
f 604/630/626 3/38/38 2/24/24
f 14/39/39 13/27/27 614/620/616
f 1/611/607 49/19/19 25/612/608
f 2/24/24 26/23/23 602/619/615
f 26/23/23 50/64/64 602/619/615
f 1/611/607 73/62/62 49/19/19
f 1/611/607 97/88/88 73/62/62
f 50/64/64 74/89/89 602/619/615
f 1/611/607 121/112/112 97/88/88
f 74/89/89 98/113/113 602/619/615
f 1/611/607 145/114/114 121/112/112
f 98/113/113 122/117/117 602/619/615
f 1/611/607 169/146/146 145/114/114
f 122/117/117 146/149/149 602/619/615
f 1/611/607 193/178/178 169/146/146
f 146/149/149 170/181/181 602/619/615
f 1/611/607 217/208/208 193/178/178
f 170/181/181 194/209/209 602/619/615
f 1/611/607 241/232/232 217/208/208
f 194/209/209 218/233/233 602/619/615
f 1/611/607 265/256/256 241/232/232
f 218/233/233 242/257/257 602/619/615
f 1/611/607 289/262/262 265/256/256
f 242/257/257 266/265/265 602/619/615
f 1/611/607 313/294/294 289/262/262
f 266/265/265 290/297/297 602/619/615
f 290/297/297 314/328/328 602/619/615
f 1/611/607 337/326/326 313/294/294
f 1/611/607 361/352/352 337/326/326
f 314/328/328 338/353/353 602/619/615
f 1/611/607 385/376/376 361/352/352
f 338/353/353 362/377/377 602/619/615
f 1/611/607 409/378/378 385/376/376
f 362/377/377 386/381/381 602/619/615
f 1/611/607 433/410/410 409/378/378
f 386/381/381 410/413/413 602/619/615
f 1/611/607 457/442/442 433/410/410
f 410/413/413 434/445/445 602/619/615
f 1/611/607 481/472/472 457/442/442
f 434/445/445 458/473/473 602/619/615
f 1/631/607 505/498/496 481/632/472
f 458/473/473 482/500/497 602/619/615
f 1/631/607 529/518/514 505/498/496
f 482/500/497 506/521/517 602/619/615
f 1/631/607 553/548/544 529/518/514
f 506/521/517 530/549/545 602/619/615
f 1/631/607 577/572/568 553/548/544
f 530/549/545 554/573/569 602/619/615
f 1/631/607 601/596/592 577/572/568
f 554/573/569 578/597/593 602/619/615
f 19/604/600 20/1/1 43/3/3
f 9/36/36 33/4/4 8/6/6
f 17/609/605 18/7/7 41/9/9
f 7/37/37 31/10/10 6/12/12
f 5/608/604 29/13/13 4/15/15
f 15/615/611 16/16/16 39/18/18
f 25/612/608 49/19/19 24/21/21
f 3/38/38 27/22/22 2/24/24
f 14/39/39 38/25/25 13/27/27
f 23/40/40 47/28/28 22/30/30
f 12/600/596 36/31/31 11/33/33
f 21/601/597 45/34/34 20/1/1
f 10/41/41 34/35/35 9/36/36
f 19/604/600 43/3/3 18/7/7
f 8/6/6 32/5/5 7/37/37
f 5/608/604 6/12/12 29/13/13
f 17/609/605 41/9/9 16/16/16
f 4/15/15 28/14/14 3/38/38
f 15/615/611 39/18/18 14/39/39
f 24/21/21 48/20/20 23/40/40
f 12/600/596 13/27/27 36/31/31
f 21/601/597 22/30/30 45/34/34
f 11/33/33 35/32/32 10/41/41
f 47/28/28 48/20/20 71/43/43
f 37/26/26 61/44/44 36/31/31
f 46/29/29 70/46/46 45/34/34
f 34/35/35 35/32/32 58/49/49
f 43/3/3 44/2/2 67/51/51
f 33/4/4 57/52/52 32/5/5
f 41/9/9 42/8/8 65/55/55
f 31/10/10 55/56/56 30/11/11
f 29/13/13 53/58/58 28/14/14
f 40/17/17 64/60/60 39/18/18
f 49/19/19 73/62/62 48/20/20
f 27/22/22 51/63/63 26/23/23
f 38/25/25 62/65/65 37/26/26
f 47/28/28 71/43/43 46/29/29
f 36/31/31 60/45/45 35/32/32
f 45/34/34 69/47/47 44/2/2
f 34/35/35 58/49/49 33/4/4
f 43/3/3 67/51/51 42/8/8
f 32/5/5 56/53/53 31/10/10
f 30/11/11 54/57/57 29/13/13
f 41/9/9 65/55/55 40/17/17
f 28/14/14 52/59/59 27/22/22
f 38/25/25 39/18/18 62/65/65
f 54/57/57 78/66/66 53/58/58
f 65/55/55 89/68/68 64/60/60
f 52/59/59 76/70/70 51/63/63
f 63/61/61 87/72/72 62/65/65
f 72/42/42 96/74/74 71/43/43
f 60/45/45 61/44/44 84/77/77
f 69/47/47 70/46/46 93/79/79
f 59/48/48 83/80/80 58/49/49
f 68/50/50 92/82/82 67/51/51
f 57/52/52 81/84/84 56/53/53
f 65/55/55 66/54/54 89/68/68
f 55/56/56 79/87/87 54/57/57
f 53/58/58 77/67/67 52/59/59
f 63/61/61 64/60/60 87/72/72
f 72/42/42 73/62/62 96/74/74
f 51/63/63 75/71/71 50/64/64
f 62/65/65 86/73/73 61/44/44
f 70/46/46 71/43/43 94/78/78
f 60/45/45 84/77/77 59/48/48
f 68/50/50 69/47/47 92/82/82
f 58/49/49 82/81/81 57/52/52
f 67/51/51 91/83/83 66/54/54
f 56/53/53 80/85/85 55/56/56
f 92/82/82 93/79/79 116/91/91
f 82/81/81 106/92/92 81/84/84
f 91/83/83 115/94/94 90/86/86
f 80/85/85 104/96/96 79/87/87
f 77/67/67 78/66/66 101/99/99
f 89/68/68 113/100/100 88/69/69
f 76/70/70 100/102/102 75/71/71
f 87/72/72 111/104/104 86/73/73
f 95/75/75 96/74/74 119/107/107
f 84/77/77 85/76/76 108/109/109
f 94/78/78 118/110/110 93/79/79
f 82/81/81 83/80/80 106/92/92
f 92/82/82 116/91/91 91/83/83
f 81/84/84 105/93/93 80/85/85
f 89/68/68 90/86/86 113/100/100
f 79/87/87 103/97/97 78/66/66
f 77/67/67 101/99/99 76/70/70
f 87/72/72 88/69/69 111/104/104
f 97/88/88 121/112/112 96/74/74
f 75/71/71 99/103/103 74/89/89
f 86/73/73 110/105/105 85/76/76
f 95/75/75 119/107/107 94/78/78
f 83/80/80 84/77/77 107/111/111
f 121/112/112 145/114/114 120/106/106
f 98/113/113 99/103/103 122/117/117
f 110/105/105 134/118/118 109/108/108
f 118/110/110 119/107/107 142/121/121
f 107/111/111 108/109/109 131/123/123
f 116/91/91 117/90/90 140/125/125
f 106/92/92 130/126/126 105/93/93
f 115/94/94 139/128/128 114/95/95
f 104/96/96 128/130/130 103/97/97
f 102/98/98 126/132/132 101/99/99
f 112/101/101 113/100/100 136/135/135
f 100/102/102 124/136/136 99/103/103
f 111/104/104 135/137/137 110/105/105
f 119/107/107 120/106/106 143/120/120
f 109/108/108 133/119/119 108/109/109
f 118/110/110 142/121/121 117/90/90
f 107/111/111 131/123/123 106/92/92
f 116/91/91 140/125/125 115/94/94
f 105/93/93 129/127/127 104/96/96
f 113/100/100 114/95/95 137/134/134
f 103/97/97 127/131/131 102/98/98
f 101/99/99 125/133/133 100/102/102
f 111/104/104 112/101/101 135/137/137
f 138/129/129 162/138/138 137/134/134
f 127/131/131 151/140/140 126/132/132
f 125/133/133 149/142/142 124/136/136
f 135/137/137 136/135/135 159/145/145
f 144/115/115 145/114/114 168/147/147
f 123/116/116 147/148/148 122/117/117
f 134/118/118 158/150/150 133/119/119
f 143/120/120 167/152/152 142/121/121
f 131/123/123 132/122/122 155/155/155
f 140/125/125 141/124/124 164/157/157
f 130/126/126 154/158/158 129/127/127
f 139/128/128 163/160/160 138/129/129
f 128/130/130 152/161/161 127/131/131
f 126/132/132 150/141/141 125/133/133
f 136/135/135 137/134/134 160/144/144
f 124/136/136 148/143/143 123/116/116
f 135/137/137 159/145/145 134/118/118
f 143/120/120 144/115/115 167/152/152
f 133/119/119 157/151/151 132/122/122
f 142/121/121 166/153/153 141/124/124
f 131/123/123 155/155/155 130/126/126
f 140/125/125 164/157/157 139/128/128
f 129/127/127 153/159/159 128/130/130
f 166/153/153 190/162/162 165/156/156
f 154/158/158 155/155/155 178/165/165
f 164/157/157 188/166/166 163/160/160
f 152/161/161 153/159/159 176/169/169
f 161/139/139 162/138/138 185/171/171
f 151/140/140 175/172/172 150/141/141
f 148/143/143 149/142/142 172/175/175
f 159/145/145 160/144/144 183/177/177
f 169/146/146 193/178/178 168/147/147
f 146/149/149 147/148/148 170/181/181
f 158/150/150 182/182/182 157/151/151
f 166/153/153 167/152/152 190/162/162
f 156/154/154 180/185/185 155/155/155
f 164/157/157 165/156/156 188/166/166
f 154/158/158 178/165/165 153/159/159
f 163/160/160 187/167/167 162/138/138
f 152/161/161 176/169/169 151/140/140
f 149/142/142 150/141/141 173/174/174
f 161/139/139 185/171/171 160/144/144
f 148/143/143 172/175/175 147/148/148
f 159/145/145 183/177/177 158/150/150
f 168/147/147 192/179/179 167/152/152
f 156/154/154 157/151/151 180/185/185
f 171/180/180 172/175/175 195/187/187
f 183/177/177 207/188/188 182/182/182
f 192/179/179 216/190/190 191/184/184
f 181/183/183 205/192/192 180/185/185
f 190/162/162 214/194/194 189/163/163
f 178/165/165 179/164/164 202/197/197
f 188/166/166 212/198/198 187/167/167
f 176/169/169 177/168/168 200/201/201
f 185/171/171 186/170/170 209/203/203
f 175/172/172 199/204/204 174/173/173
f 173/174/174 197/206/206 172/175/175
f 183/177/177 184/176/176 207/188/188
f 193/178/178 217/208/208 192/179/179
f 171/180/180 195/187/187 170/181/181
f 182/182/182 206/189/189 181/183/183
f 190/162/162 191/184/184 214/194/194
f 179/164/164 180/185/185 203/196/196
f 188/166/166 189/163/163 212/198/198
f 178/165/165 202/197/197 177/168/168
f 187/167/167 211/199/199 186/170/170
f 176/169/169 200/201/201 175/172/172
f 174/173/173 198/205/205 173/174/174
f 185/171/171 209/203/203 184/176/176
f 211/199/199 235/210/210 210/202/202
f 200/201/201 224/212/212 199/204/204
f 198/205/205 222/214/214 197/206/206
f 209/203/203 233/216/216 208/207/207
f 196/186/186 220/218/218 195/187/187
f 206/189/189 207/188/188 230/221/221
f 216/190/190 240/222/222 215/191/191
f 205/192/192 229/224/224 204/193/193
f 214/194/194 238/226/226 213/195/195
f 202/197/197 203/196/196 226/229/229
f 212/198/198 236/230/230 211/199/199
f 200/201/201 201/200/200 224/212/212
f 209/203/203 210/202/202 233/216/216
f 199/204/204 223/213/213 198/205/205
f 197/206/206 221/215/215 196/186/186
f 207/188/188 208/207/207 231/220/220
f 217/208/208 241/232/232 216/190/190
f 195/187/187 219/219/219 194/209/209
f 206/189/189 230/221/221 205/192/192
f 215/191/191 239/223/223 214/194/194
f 203/196/196 204/193/193 227/228/228
f 212/198/198 213/195/195 236/230/230
f 202/197/197 226/229/229 201/200/200
f 238/226/226 239/223/223 262/235/235
f 227/228/228 228/225/225 251/237/237
f 236/230/230 237/227/227 260/239/239
f 226/229/229 250/240/240 225/231/231
f 235/210/210 259/242/242 234/211/211
f 224/212/212 248/244/244 223/213/213
f 221/215/215 222/214/214 245/247/247
f 233/216/216 257/248/248 232/217/217
f 220/218/218 244/250/250 219/219/219
f 230/221/221 231/220/220 254/253/253
f 239/223/223 240/222/222 263/234/234
f 229/224/224 253/255/255 228/225/225
f 238/226/226 262/235/235 237/227/227
f 226/229/229 227/228/228 250/240/240
f 236/230/230 260/239/239 235/210/210
f 224/212/212 225/231/231 248/244/244
f 233/216/216 234/211/211 257/248/248
f 223/213/213 247/245/245 222/214/214
f 220/218/218 221/215/215 244/250/250
f 231/220/220 232/217/217 255/252/252
f 240/222/222 241/232/232 264/254/254
f 219/219/219 243/251/251 218/233/233
f 230/221/221 254/253/253 229/224/224
f 245/247/247 269/258/258 244/250/250
f 255/252/252 256/249/249 279/261/261
f 265/256/256 289/262/262 264/254/254
f 242/257/257 243/251/251 266/265/265
f 254/253/253 278/266/266 253/255/255
f 262/235/235 263/234/234 286/269/269
f 251/237/237 252/236/236 275/271/271
f 261/238/238 285/272/272 260/239/239
f 250/240/240 274/274/274 249/241/241
f 259/242/242 283/276/276 258/243/243
f 248/244/244 272/278/278 247/245/245
f 246/246/246 270/280/280 245/247/247
f 257/248/248 281/281/281 256/249/249
f 243/251/251 244/250/250 267/264/264
f 254/253/253 255/252/252 278/266/266
f 264/254/254 288/263/263 263/234/234
f 253/255/255 277/267/267 252/236/236
f 262/235/235 286/269/269 261/238/238
f 250/240/240 251/237/237 274/274/274
f 260/239/239 284/273/273 259/242/242
f 248/244/244 249/241/241 272/278/278
f 257/248/248 258/243/243 281/281/281
f 247/245/245 271/279/279 246/246/246
f 284/273/273 308/282/282 283/276/276
f 272/278/278 273/275/275 296/285/285
f 281/281/281 282/277/277 305/287/287
f 271/279/279 295/288/288 270/280/280
f 268/259/259 269/258/258 292/291/291
f 279/261/261 280/260/260 303/293/293
f 289/262/262 313/294/294 288/263/263
f 267/264/264 291/296/296 266/265/265
f 278/266/266 302/298/298 277/267/267
f 287/268/268 311/300/300 286/269/269
f 276/270/270 300/302/302 275/271/271
f 285/272/272 309/304/304 284/273/273
f 274/274/274 298/305/305 273/275/275
f 283/276/276 307/283/283 282/277/277
f 272/278/278 296/285/285 271/279/279
f 269/258/258 270/280/280 293/290/290
f 281/281/281 305/287/287 280/260/260
f 268/259/259 292/291/291 267/264/264
f 278/266/266 279/261/261 302/298/298
f 288/263/263 312/295/295 287/268/268
f 277/267/267 301/299/299 276/270/270
f 286/269/269 310/301/301 285/272/272
f 275/271/271 299/303/303 274/274/274
f 312/295/295 336/306/306 311/300/300
f 301/299/299 325/308/308 300/302/302
f 310/301/301 334/310/310 309/304/304
f 298/305/305 299/303/303 322/313/313
f 308/282/282 332/314/314 307/283/283
f 296/285/285 297/284/284 320/317/317
f 305/287/287 306/286/286 329/319/319
f 295/288/288 319/320/320 294/289/289
f 292/291/291 293/290/290 316/323/323
f 303/293/293 304/292/292 327/325/325
f 313/294/294 337/326/326 312/295/295
f 291/296/296 315/327/327 290/297/297
f 302/298/298 326/329/329 301/299/299
f 310/301/301 311/300/300 334/310/310
f 299/303/303 300/302/302 323/312/312
f 309/304/304 333/311/311 308/282/282
f 298/305/305 322/313/313 297/284/284
f 307/283/283 331/315/315 306/286/286
f 296/285/285 320/317/317 295/288/288
f 293/290/290 294/289/289 317/322/322
f 305/287/287 329/319/319 304/292/292
f 292/291/291 316/323/323 291/296/296
f 302/298/298 303/293/293 326/329/329
f 318/321/321 342/330/330 317/322/322
f 329/319/319 353/332/332 328/324/324
f 316/323/323 340/334/334 315/327/327
f 326/329/329 327/325/325 350/337/337
f 336/306/306 360/338/338 335/307/307
f 325/308/308 349/340/340 324/309/309
f 334/310/310 358/342/342 333/311/311
f 322/313/313 323/312/312 346/345/345
f 332/314/314 356/346/346 331/315/315
f 320/317/317 321/316/316 344/349/349
f 329/319/319 330/318/318 353/332/332
f 319/320/320 343/351/351 318/321/321
f 317/322/322 341/331/331 316/323/323
f 327/325/325 328/324/324 351/336/336
f 336/306/306 337/326/326 360/338/338
f 314/328/328 315/327/327 338/353/353
f 326/329/329 350/337/337 325/308/308
f 335/307/307 359/339/339 334/310/310
f 323/312/312 324/309/309 347/344/344
f 332/314/314 333/311/311 356/346/346
f 322/313/313 346/345/345 321/316/316
f 331/315/315 355/347/347 330/318/318
f 320/317/317 344/349/349 319/320/320
f 357/343/343 381/354/354 356/346/346
f 346/345/345 370/356/356 345/348/348
f 355/347/347 379/358/358 354/350/350
f 344/349/349 368/360/360 343/351/351
f 342/330/330 366/362/362 341/331/331
f 353/332/332 377/364/364 352/333/333
f 339/335/335 340/334/334 363/367/367
f 350/337/337 351/336/336 374/369/369
f 359/339/339 360/338/338 383/371/371
f 349/340/340 373/372/372 348/341/341
f 358/342/342 382/374/374 357/343/343
f 346/345/345 347/344/344 370/356/356
f 356/346/346 380/355/355 355/347/347
f 344/349/349 345/348/348 368/360/360
f 354/350/350 378/359/359 353/332/332
f 343/351/351 367/361/361 342/330/330
f 340/334/334 341/331/331 364/366/366
f 351/336/336 352/333/333 375/368/368
f 361/352/352 385/376/376 360/338/338
f 339/335/335 363/367/367 338/353/353
f 350/337/337 374/369/369 349/340/340
f 359/339/339 383/371/371 358/342/342
f 347/344/344 348/341/341 371/375/375
f 385/376/376 409/378/378 384/370/370
f 362/377/377 363/367/367 386/381/381
f 374/369/369 398/382/382 373/372/372
f 383/371/371 407/384/384 382/374/374
f 371/375/375 372/373/373 395/387/387
f 381/354/354 405/388/388 380/355/355
f 370/356/356 394/390/390 369/357/357
f 379/358/358 403/392/392 378/359/359
f 368/360/360 392/394/394 367/361/361
f 366/362/362 390/396/396 365/363/363
f 377/364/364 401/398/398 376/365/365
f 364/366/366 388/400/400 363/367/367
f 374/369/369 375/368/368 398/382/382
f 384/370/370 408/379/379 383/371/371
f 373/372/372 397/383/383 372/373/373
f 382/374/374 406/385/385 381/354/354
f 370/356/356 371/375/375 394/390/390
f 379/358/358 380/355/355 403/392/392
f 368/360/360 369/357/357 392/394/394
f 378/359/359 402/393/393 377/364/364
f 367/361/361 391/395/395 366/362/362
f 364/366/366 365/363/363 388/400/400
f 375/368/368 376/365/365 399/401/401
f 402/393/393 426/402/402 401/398/398
f 390/396/396 391/395/395 414/405/405
f 388/400/400 389/397/397 412/407/407
f 399/401/401 400/399/399 423/409/409
f 409/378/378 433/410/410 408/379/379
f 387/380/380 411/412/412 386/381/381
f 398/382/382 422/414/414 397/383/383
f 406/385/385 407/384/384 430/417/417
f 395/387/387 396/386/386 419/419/419
f 405/388/388 429/420/420 404/389/389
f 394/390/390 418/422/422 393/391/391
f 403/392/392 427/424/424 402/393/393
f 392/394/394 416/425/425 391/395/395
f 389/397/397 390/396/396 413/406/406
f 401/398/398 425/403/403 400/399/399
f 388/400/400 412/407/407 387/380/380
f 398/382/382 399/401/401 422/414/414
f 408/379/379 432/411/411 407/384/384
f 397/383/383 421/415/415 396/386/386
f 406/385/385 430/417/417 405/388/388
f 395/387/387 419/419/419 394/390/390
f 403/392/392 404/389/389 427/424/424
f 392/394/394 393/391/391 416/425/425
f 430/417/417 454/426/426 429/420/420
f 418/422/422 419/419/419 442/429/429
f 427/424/424 428/421/421 451/431/431
f 416/425/425 417/423/423 440/433/433
f 426/402/402 450/434/434 425/403/403
f 415/404/404 439/436/436 414/405/405
f 412/407/407 413/406/406 436/439/439
f 423/409/409 424/408/408 447/441/441
f 432/411/411 433/410/410 456/443/443
f 411/412/412 435/444/444 410/413/413
f 422/414/414 446/446/446 421/415/415
f 430/417/417 431/416/416 454/426/426
f 419/419/419 420/418/418 443/428/428
f 429/420/420 453/427/427 428/421/421
f 418/422/422 442/429/429 417/423/423
f 427/424/424 451/431/431 426/402/402
f 416/425/425 440/433/433 415/404/404
f 414/405/405 438/437/437 413/406/406
f 425/403/403 449/435/435 424/408/408
f 412/407/407 436/439/439 411/412/412
f 422/414/414 423/409/409 446/446/446
f 431/416/416 432/411/411 455/448/448
f 421/415/415 445/447/447 420/418/418
f 436/439/439 460/450/450 435/444/444
f 446/446/446 447/441/441 470/453/453
f 455/448/448 456/443/443 479/455/455
f 445/447/447 469/456/456 444/449/449
f 454/426/426 478/458/458 453/427/427
f 442/429/429 443/428/428 466/461/461
f 451/431/431 452/430/430 475/463/463
f 440/433/433 441/432/432 464/465/465
f 450/434/434 474/466/466 449/435/435
f 439/436/436 463/468/468 438/437/437
f 436/439/439 437/438/438 460/450/450
f 447/441/441 448/440/440 471/452/452
f 457/442/442 481/472/472 456/443/443
f 435/444/444 459/451/451 434/445/445
f 446/446/446 470/453/453 445/447/447
f 454/426/426 455/448/448 478/458/458
f 443/428/428 444/449/449 467/460/460
f 453/427/427 477/459/459 452/430/430
f 442/429/429 466/461/461 441/432/432
f 451/431/431 475/463/463 450/434/434
f 440/433/433 464/465/465 439/436/436
f 437/438/438 438/437/437 461/470/470
f 449/435/435 473/467/467 448/440/440
f 475/463/463 499/474/474 474/466/466
f 464/465/465 488/476/476 463/468/468
f 461/470/470 462/469/469 485/479/479
f 473/467/467 497/480/480 472/471/471
f 460/450/450 484/482/482 459/451/451
f 470/453/453 471/452/452 494/485/485
f 480/499/454 504/486/486 479/488/455
f 469/456/456 493/489/488 468/457/457
f 478/501/458 502/491/490 477/493/459
f 466/461/461 467/460/460 490/495/493
f 476/462/462 500/496/494 475/463/463
f 464/465/465 465/464/464 488/476/476
f 474/466/466 498/475/475 473/467/467
f 463/468/468 487/477/477 462/469/469
f 460/450/450 461/470/470 484/482/482
f 471/452/452 472/471/471 495/484/484
f 481/632/472 505/498/496 480/499/454
f 459/451/451 483/483/483 458/473/473
f 470/453/453 494/485/485 469/456/456
f 479/488/455 503/487/487 478/501/458
f 467/460/460 468/457/457 491/494/492
f 477/493/459 501/492/491 476/462/462
f 466/461/461 490/495/493 465/464/464
f 502/491/490 526/502/498 501/492/491
f 490/495/493 491/494/492 514/505/501
f 500/496/494 524/506/502 499/474/474
f 488/476/476 489/497/495 512/509/505
f 498/475/475 522/510/506 497/480/480
f 487/477/477 511/512/508 486/478/478
f 484/482/482 485/479/479 508/515/511
f 495/484/484 496/481/481 519/517/513
f 504/486/486 505/498/496 528/519/515
f 483/483/483 507/520/516 482/500/497
f 494/485/485 518/522/518 493/489/488
f 502/491/490 503/487/487 526/502/498
f 491/494/492 492/490/489 515/504/500
f 501/492/491 525/503/499 500/496/494
f 490/495/493 514/505/501 489/497/495
f 498/475/475 499/474/474 522/510/506
f 488/476/476 512/509/505 487/477/477
f 486/478/478 510/513/509 485/479/479
f 497/480/480 521/511/507 496/481/481
f 483/483/483 484/482/482 507/520/516
f 494/485/485 495/484/484 518/522/518
f 504/486/486 528/519/515 503/487/487
f 493/489/488 517/523/519 492/490/489
f 508/515/511 532/526/522 507/520/516
f 518/522/518 519/517/513 542/529/525
f 527/524/520 528/519/515 551/531/527
f 517/523/519 541/532/528 516/525/521
f 526/502/498 550/534/530 525/503/499
f 514/505/501 515/504/500 538/537/533
f 523/507/503 524/506/502 547/539/535
f 512/509/505 513/508/504 536/541/537
f 522/510/506 546/542/538 521/511/507
f 511/512/508 535/544/540 510/513/509
f 508/515/511 509/514/510 532/526/522
f 519/517/513 520/516/512 543/528/524
f 528/519/515 529/518/514 552/530/526
f 507/520/516 531/527/523 506/521/517
f 518/522/518 542/529/525 517/523/519
f 527/524/520 551/531/527 526/502/498
f 515/504/500 516/525/521 539/536/532
f 525/503/499 549/535/531 524/506/502
f 514/505/501 538/537/533 513/508/504
f 523/507/503 547/539/535 522/510/506
f 512/509/505 536/541/537 511/512/508
f 509/514/510 510/513/509 533/546/542
f 521/511/507 545/543/539 520/516/512
f 546/542/538 547/539/535 570/551/547
f 536/541/537 560/552/548 535/544/540
f 534/545/541 558/554/550 533/546/542
f 545/543/539 569/556/552 544/547/543
f 532/526/522 556/558/554 531/527/523
f 542/529/525 543/528/524 566/561/557
f 552/530/526 576/562/558 551/531/527
f 541/532/528 565/564/560 540/533/529
f 550/534/530 574/566/562 549/535/531
f 538/537/533 539/536/532 562/569/565
f 547/539/535 548/538/534 571/550/546
f 536/541/537 537/540/536 560/552/548
f 546/542/538 570/551/547 545/543/539
f 535/544/540 559/553/549 534/545/541
f 533/546/542 557/555/551 532/526/522
f 543/528/524 544/547/543 567/560/556
f 553/548/544 577/572/568 552/530/526
f 530/549/545 531/527/523 554/573/569
f 542/529/525 566/561/557 541/532/528
f 550/534/530 551/531/527 574/566/562
f 539/536/532 540/533/529 563/568/564
f 549/535/531 573/567/563 548/538/534
f 538/537/533 562/569/565 537/540/536
f 575/563/559 599/574/570 574/566/562
f 563/568/564 564/565/561 587/577/573
f 573/567/563 597/578/574 572/570/566
f 562/569/565 586/580/576 561/571/567
f 570/551/547 571/550/546 594/583/579
f 560/552/548 584/584/580 559/553/549
f 557/555/551 558/554/550 581/587/583
f 569/556/552 593/588/584 568/557/553
f 556/558/554 580/590/586 555/559/555
f 566/561/557 567/560/556 590/593/589
f 576/562/558 600/594/590 575/563/559
f 565/564/560 589/595/591 564/565/561
f 574/566/562 598/575/571 573/567/563
f 562/569/565 563/568/564 586/580/576
f 571/550/546 572/570/566 595/582/578
f 561/571/567 585/581/577 560/552/548
f 570/551/547 594/583/579 569/556/552
f 559/553/549 583/585/581 558/554/550
f 556/558/554 557/555/551 580/590/586
f 567/560/556 568/557/553 591/592/588
f 576/562/558 577/572/568 600/594/590
f 554/573/569 555/559/555 578/597/593
f 566/561/557 590/593/589 565/564/560
f 624/617/613 23/40/40 623/598/594
f 612/622/618 613/599/595 11/33/33
f 622/621/617 21/601/597 621/602/598
f 610/624/620 611/603/599 9/36/36
f 620/623/619 19/604/600 619/605/601
f 608/626/622 609/606/602 7/37/37
f 606/627/623 607/607/603 5/608/604
f 618/625/621 17/609/605 617/610/606
f 604/630/626 605/614/610 3/38/38
f 616/628/624 15/615/611 615/616/612
f 625/629/625 24/21/21 624/617/613
f 613/599/595 614/620/616 12/600/596
f 623/598/594 22/30/30 622/621/617
f 611/603/599 612/622/618 10/41/41
f 621/602/598 20/1/1 620/623/619
f 609/606/602 610/624/620 8/6/6
f 619/605/601 18/7/7 618/625/621
f 607/607/603 608/626/622 6/12/12
f 605/614/610 606/627/623 4/15/15
f 617/610/606 16/16/16 616/628/624
f 626/613/609 25/612/608 625/629/625
f 603/618/614 604/630/626 2/24/24
f 615/616/612 14/39/39 614/620/616
